﻿<?xml version="1.0" encoding="UTF-8"?>
<TestRun id="f58703d1-42b1-4e3a-8946-4d73a2d5f23f" name="Madhur@MADHUR-PC 2012-03-26 18:59:32" runUser="Madhur-PC\Madhur" xmlns="http://microsoft.com/schemas/VisualStudio/TeamTest/2010">
  <TestSettings name="Local" id="41678201-4eb4-4d6b-86b7-2e2fa0278df7">
    <Description>These are default test settings for a local test run.</Description>
    <Deployment enabled="false" runDeploymentRoot="Madhur_MADHUR-PC 2012-03-26 18_59_32">
      <DeploymentItem filename="D:\OFFICE-WORK\INNOSOLS\WORK\SILVERLIGHT\DK\SIMS.MM.DAL\SIMS.MM.BLL\bin\Debug\SIMS.MM.BLL.dll" />
      <DeploymentItem filename="D:\OFFICE-WORK\INNOSOLS\WORK\SILVERLIGHT\DK\SIMS.MM.DAL\SIMS.MM.DAL\bin\Debug\SIMS.MM.DAL.dll" />
      <DeploymentItem filename="D:\OFFICE-WORK\INNOSOLS\WORK\SILVERLIGHT\DK\SIMS.MM.DAL\SIMS.MM.BLL\bin\Debug\SIMS.MM.MODEL.dll" />
    </Deployment>
    <Execution>
      <TestTypeSpecific />
      <AgentRule name="Execution Agents">
        <DataCollectors>
          <DataCollector uri="datacollector://Microsoft/TestImpact/1.0" assemblyQualifiedName="Microsoft.VisualStudio.TraceCollector.TestImpactDataCollector, Microsoft.VisualStudio.TraceCollector, Version=10.0.0.0, Culture=neutral, PublicKeyToken=b03f5f7f11d50a3a">
          </DataCollector>
        </DataCollectors>
      </AgentRule>
    </Execution>
  </TestSettings>
  <Times creation="2012-03-26T18:59:32.1973880+05:30" queuing="2012-03-26T18:59:32.3483966+05:30" start="2012-03-26T18:59:36.4246297+05:30" finish="2012-03-26T18:59:37.5706953+05:30" />
  <ResultSummary outcome="NotRunnable">
    <Counters total="1" error="0" failed="0" timeout="0" aborted="0" inconclusive="0" passedButRunAborted="0" notRunnable="1" notExecuted="0" disconnected="0" warning="0" passed="0" completed="0" inProgress="0" pending="0" />
  </ResultSummary>
  <TestDefinitions>
    <UnitTest name="GetAllReceivingsforMasters_test" storage="d:\office-work\innosols\work\silverlight\dk\sims.mm.dal\sims.mm.testing\bin\debug\sims.mm.testing.dll" id="2cbd2c63-5298-a895-0c5d-405ae017640b">
      <Execution id="ba7622f0-5b6f-4358-9380-a2d2f8ae77c5" />
      <TestMethod codeBase="D:/OFFICE-WORK/INNOSOLS/WORK/SILVERLIGHT/DK/SIMS.MM.DAL/SIMS.MM.Testing/bin/Debug/SIMS.MM.Testing.DLL" adapterTypeName="Microsoft.VisualStudio.TestTools.TestTypes.Unit.UnitTestAdapter, Microsoft.VisualStudio.QualityTools.Tips.UnitTest.Adapter, Version=10.0.0.0, Culture=neutral, PublicKeyToken=b03f5f7f11d50a3a" className="SIMS.MM.Testing.PurchasingTest, SIMS.MM.Testing, Version=1.0.0.0, Culture=neutral, PublicKeyToken=null" name="GetAllReceivingsforMasters_test" />
    </UnitTest>
  </TestDefinitions>
  <TestLists>
    <TestList name="Results Not in a List" id="8c84fa94-04c1-424b-9868-57a2d4851a1d" />
    <TestList name="All Loaded Results" id="19431567-8539-422a-85d7-44ee4e166bda" />
  </TestLists>
  <TestEntries>
    <TestEntry testId="2cbd2c63-5298-a895-0c5d-405ae017640b" executionId="ba7622f0-5b6f-4358-9380-a2d2f8ae77c5" testListId="8c84fa94-04c1-424b-9868-57a2d4851a1d" />
  </TestEntries>
  <Results>
    <UnitTestResult executionId="ba7622f0-5b6f-4358-9380-a2d2f8ae77c5" testId="2cbd2c63-5298-a895-0c5d-405ae017640b" testName="GetAllReceivingsforMasters_test" computerName="MADHUR-PC" testType="13cdc9d9-ddb5-4fa4-a97d-d965ccfc6d4b" outcome="NotRunnable" testListId="8c84fa94-04c1-424b-9868-57a2d4851a1d" relativeResultsDirectory="ba7622f0-5b6f-4358-9380-a2d2f8ae77c5">
      <Output>
        <ErrorInfo>
          <Message>UTA007: Method GetAllReceivingsforMasters_test defined in class SIMS.MM.Testing.PurchasingTest does not have correct signature. Test method marked with the [TestMethod] attribute must be non-static, public, does not return a value and should not take any parameter. for example: public void Test.Class1.Test().</Message>
        </ErrorInfo>
      </Output>
    </UnitTestResult>
  </Results>
</TestRun>