﻿<?xml version="1.0" encoding="UTF-8"?>
<TestRun id="ce8f72e0-0ac5-42bd-9b01-80c3e3cafbf1" name="newINNOSOLS@SERVER 2012-03-03 12:24:30" runUser="SERVER\newINNOSOLS" xmlns="http://microsoft.com/schemas/VisualStudio/TeamTest/2010">
  <TestSettings name="Local" id="41678201-4eb4-4d6b-86b7-2e2fa0278df7">
    <Description>These are default test settings for a local test run.</Description>
    <Deployment runDeploymentRoot="newINNOSOLS_SERVER 2012-03-03 12_24_30">
      <DeploymentItem filename="E:\LiveProjects\SIMS.MM.DAL\SIMS.MM.DAL\bin\Debug\SIMS.MM.DAL.dll" />
      <DeploymentItem filename="E:\LiveProjects\SIMS.MM.DAL\SIMS.MM.BLL\bin\Debug\SIMS.MM.BLL.dll" />
      <DeploymentItem filename="E:\LiveProjects\SIMS.MM.DAL\SIMS.MM.BLL\bin\Debug\SIMS.MM.MODEL.dll" />
    </Deployment>
    <Execution>
      <TestTypeSpecific />
      <AgentRule name="Execution Agents">
        <DataCollectors>
          <DataCollector uri="datacollector://Microsoft/TestImpact/1.0" assemblyQualifiedName="Microsoft.VisualStudio.TraceCollector.TestImpactDataCollector, Microsoft.VisualStudio.TraceCollector, Version=10.0.0.0, Culture=neutral, PublicKeyToken=b03f5f7f11d50a3a">
          </DataCollector>
        </DataCollectors>
      </AgentRule>
    </Execution>
  </TestSettings>
  <Times creation="2012-03-03T12:24:30.3667465+05:30" queuing="2012-03-03T12:24:42.9524663+05:30" start="2012-03-03T12:24:30.3667465+05:30" finish="2012-03-03T12:25:10.0870183+05:30" />
  <ResultSummary outcome="Error">
    <Counters total="71" error="0" failed="0" timeout="0" aborted="0" inconclusive="0" passedButRunAborted="0" notRunnable="0" notExecuted="71" disconnected="0" warning="0" passed="0" completed="0" inProgress="0" pending="0" />
    <RunInfos>
      <RunInfo computerName="SERVER" outcome="Error" timestamp="2012-03-03T12:25:10.0600168+05:30">
        <Text>Test host process exited unexpectedly.</Text>
      </RunInfo>
    </RunInfos>
  </ResultSummary>
  <TestDefinitions>
    <UnitTest name="Email_test" storage="e:\liveprojects\sims.mm.dal\sims.mm.testing\bin\debug\sims.mm.testing.dll" id="3a45e946-47a6-5c0e-9929-3a6524363dee">
      <Execution id="6820db0d-972a-4fba-90d0-702e4e464a34" />
      <TestMethod codeBase="E:/LiveProjects/SIMS.MM.DAL/SIMS.MM.Testing/bin/Debug/SIMS.MM.Testing.DLL" adapterTypeName="Microsoft.VisualStudio.TestTools.TestTypes.Unit.UnitTestAdapter, Microsoft.VisualStudio.QualityTools.Tips.UnitTest.Adapter, Version=10.0.0.0, Culture=neutral, PublicKeyToken=b03f5f7f11d50a3a" className="SIMS.MM.Testing.PurchasingTest, SIMS.MM.Testing, Version=1.0.0.0, Culture=neutral, PublicKeyToken=null" name="Email_test" />
    </UnitTest>
    <UnitTest name="Get_DPbyId_test" storage="e:\liveprojects\sims.mm.dal\sims.mm.testing\bin\debug\sims.mm.testing.dll" id="e0cfbda0-af3f-2c3d-767c-8e28ece5528f">
      <Execution id="e9073908-8103-48d5-89a5-971e938a91f0" />
      <TestMethod codeBase="E:/LiveProjects/SIMS.MM.DAL/SIMS.MM.Testing/bin/Debug/SIMS.MM.Testing.DLL" adapterTypeName="Microsoft.VisualStudio.TestTools.TestTypes.Unit.UnitTestAdapter, Microsoft.VisualStudio.QualityTools.Tips.UnitTest.Adapter, Version=10.0.0.0, Culture=neutral, PublicKeyToken=b03f5f7f11d50a3a" className="SIMS.MM.Testing.PurchasingTest, SIMS.MM.Testing, Version=1.0.0.0, Culture=neutral, PublicKeyToken=null" name="Get_DPbyId_test" />
    </UnitTest>
    <UnitTest name="Receiving_PRs_From_Database" storage="e:\liveprojects\sims.mm.dal\sims.mm.testing\bin\debug\sims.mm.testing.dll" id="23e43b5b-fa22-39ca-881e-c727c563ef1d">
      <Execution id="8263d093-02f2-4658-810c-8048b36e9b93" />
      <TestMethod codeBase="E:/LiveProjects/SIMS.MM.DAL/SIMS.MM.Testing/bin/Debug/SIMS.MM.Testing.DLL" adapterTypeName="Microsoft.VisualStudio.TestTools.TestTypes.Unit.UnitTestAdapter, Microsoft.VisualStudio.QualityTools.Tips.UnitTest.Adapter, Version=10.0.0.0, Culture=neutral, PublicKeyToken=b03f5f7f11d50a3a" className="SIMS.MM.Testing.PurchasingTest, SIMS.MM.Testing, Version=1.0.0.0, Culture=neutral, PublicKeyToken=null" name="Receiving_PRs_From_Database" />
    </UnitTest>
    <UnitTest name="GetConsumptionDetails_test" storage="e:\liveprojects\sims.mm.dal\sims.mm.testing\bin\debug\sims.mm.testing.dll" id="8862a3a7-3332-565b-3ef7-ee2b49abc1d0">
      <Execution id="2b876506-70a6-4061-a498-026fd9ddbf91" />
      <TestMethod codeBase="E:/LiveProjects/SIMS.MM.DAL/SIMS.MM.Testing/bin/Debug/SIMS.MM.Testing.DLL" adapterTypeName="Microsoft.VisualStudio.TestTools.TestTypes.Unit.UnitTestAdapter, Microsoft.VisualStudio.QualityTools.Tips.UnitTest.Adapter, Version=10.0.0.0, Culture=neutral, PublicKeyToken=b03f5f7f11d50a3a" className="SIMS.MM.Testing.PurchasingTest, SIMS.MM.Testing, Version=1.0.0.0, Culture=neutral, PublicKeyToken=null" name="GetConsumptionDetails_test" />
    </UnitTest>
    <UnitTest name="Receiving_Consumption_From_Database" storage="e:\liveprojects\sims.mm.dal\sims.mm.testing\bin\debug\sims.mm.testing.dll" id="e7f72be7-d5e6-5cc1-3e6e-6b407a81a072">
      <Execution id="1803fd34-b1a2-4f04-b355-ce145ad4f725" />
      <TestMethod codeBase="E:/LiveProjects/SIMS.MM.DAL/SIMS.MM.Testing/bin/Debug/SIMS.MM.Testing.DLL" adapterTypeName="Microsoft.VisualStudio.TestTools.TestTypes.Unit.UnitTestAdapter, Microsoft.VisualStudio.QualityTools.Tips.UnitTest.Adapter, Version=10.0.0.0, Culture=neutral, PublicKeyToken=b03f5f7f11d50a3a" className="SIMS.MM.Testing.PurchasingTest, SIMS.MM.Testing, Version=1.0.0.0, Culture=neutral, PublicKeyToken=null" name="Receiving_Consumption_From_Database" />
    </UnitTest>
    <UnitTest name="CloseMO_IFRequired_test" storage="e:\liveprojects\sims.mm.dal\sims.mm.testing\bin\debug\sims.mm.testing.dll" id="41850c5d-3d59-0895-e8c5-e99ac8df5129">
      <Execution id="2eb3bf2f-5c66-42f3-ae2f-6c924b4ae758" />
      <TestMethod codeBase="E:/LiveProjects/SIMS.MM.DAL/SIMS.MM.Testing/bin/Debug/SIMS.MM.Testing.DLL" adapterTypeName="Microsoft.VisualStudio.TestTools.TestTypes.Unit.UnitTestAdapter, Microsoft.VisualStudio.QualityTools.Tips.UnitTest.Adapter, Version=10.0.0.0, Culture=neutral, PublicKeyToken=b03f5f7f11d50a3a" className="SIMS.MM.Testing.PurchasingTest, SIMS.MM.Testing, Version=1.0.0.0, Culture=neutral, PublicKeyToken=null" name="CloseMO_IFRequired_test" />
    </UnitTest>
    <UnitTest name="GetStockReports_test" storage="e:\liveprojects\sims.mm.dal\sims.mm.testing\bin\debug\sims.mm.testing.dll" id="2a3c1c30-7150-8342-6f12-9cebe0936764">
      <Execution id="d6412585-bbc3-4922-97d2-959b89dbf395" />
      <TestMethod codeBase="E:/LiveProjects/SIMS.MM.DAL/SIMS.MM.Testing/bin/Debug/SIMS.MM.Testing.DLL" adapterTypeName="Microsoft.VisualStudio.TestTools.TestTypes.Unit.UnitTestAdapter, Microsoft.VisualStudio.QualityTools.Tips.UnitTest.Adapter, Version=10.0.0.0, Culture=neutral, PublicKeyToken=b03f5f7f11d50a3a" className="SIMS.MM.Testing.PurchasingTest, SIMS.MM.Testing, Version=1.0.0.0, Culture=neutral, PublicKeyToken=null" name="GetStockReports_test" />
    </UnitTest>
    <WebTest name="WebTest1" storage="e:\liveprojects\sims.mm.dal\sims.mm.testing\webtest1.webtest" id="35d94504-203f-4a16-a67b-7687ffbf9d7c" persistedWebTest="77u/PD94bWwgdmVyc2lvbj0iMS4wIiBlbmNvZGluZz0iVVRGLTgiIHN0YW5kYWxvbmU9InllcyI/Pg0KPFdlYlRlc3QgTmFtZT0iV2ViVGVzdDEiIElkPSIzNWQ5NDUwNC0yMDNmLTRhMTYtYTY3Yi03Njg3ZmZiZjlkN2MiIE93bmVyPSIiIFByaW9yaXR5PSIyMTQ3NDgzNjQ3IiBFbmFibGVkPSJUcnVlIiBDc3NQcm9qZWN0U3RydWN0dXJlPSIiIENzc0l0ZXJhdGlvbj0iIiBUaW1lb3V0PSIwIiBXb3JrSXRlbUlkcz0iIiB4bWxucz0iaHR0cDovL21pY3Jvc29mdC5jb20vc2NoZW1hcy9WaXN1YWxTdHVkaW8vVGVhbVRlc3QvMjAxMCIgRGVzY3JpcHRpb249IiIgQ3JlZGVudGlhbFVzZXJOYW1lPSIiIENyZWRlbnRpYWxQYXNzd29yZD0iIiBQcmVBdXRoZW50aWNhdGU9IlRydWUiIFByb3h5PSIiIFN0b3BPbkVycm9yPSJGYWxzZSIgUmVjb3JkZWRSZXN1bHRGaWxlPSIiIC8+">
      <Execution id="c1795922-5aaf-41e1-a267-21e33cb4a418" />
    </WebTest>
    <UnitTest name="receiving_grn_from_database" storage="e:\liveprojects\sims.mm.dal\sims.mm.testing\bin\debug\sims.mm.testing.dll" id="3d66b883-9c4b-642d-5b4f-9f43602caca6">
      <Execution id="b89151e8-e343-4656-98af-3520ddcf463a" />
      <TestMethod codeBase="E:/LiveProjects/SIMS.MM.DAL/SIMS.MM.Testing/bin/Debug/SIMS.MM.Testing.DLL" adapterTypeName="Microsoft.VisualStudio.TestTools.TestTypes.Unit.UnitTestAdapter, Microsoft.VisualStudio.QualityTools.Tips.UnitTest.Adapter, Version=10.0.0.0, Culture=neutral, PublicKeyToken=b03f5f7f11d50a3a" className="SIMS.MM.Testing.PurchasingTest, SIMS.MM.Testing, Version=1.0.0.0, Culture=neutral, PublicKeyToken=null" name="receiving_grn_from_database" />
    </UnitTest>
    <UnitTest name="GetMOHeaders_test" storage="e:\liveprojects\sims.mm.dal\sims.mm.testing\bin\debug\sims.mm.testing.dll" id="550f4330-d040-45ef-08e2-7bc978e37ede">
      <Execution id="bc5b8644-76c4-47be-b091-0a4e9919f3bd" />
      <TestMethod codeBase="E:/LiveProjects/SIMS.MM.DAL/SIMS.MM.Testing/bin/Debug/SIMS.MM.Testing.DLL" adapterTypeName="Microsoft.VisualStudio.TestTools.TestTypes.Unit.UnitTestAdapter, Microsoft.VisualStudio.QualityTools.Tips.UnitTest.Adapter, Version=10.0.0.0, Culture=neutral, PublicKeyToken=b03f5f7f11d50a3a" className="SIMS.MM.Testing.PurchasingTest, SIMS.MM.Testing, Version=1.0.0.0, Culture=neutral, PublicKeyToken=null" name="GetMOHeaders_test" />
    </UnitTest>
    <UnitTest name="CreateNewMTR_Test" storage="e:\liveprojects\sims.mm.dal\sims.mm.testing\bin\debug\sims.mm.testing.dll" id="9f976234-e62f-b9f8-1b9a-a5735745c60c">
      <Execution id="e5a7c59a-b286-4957-a522-3788c33e8441" />
      <TestMethod codeBase="E:/LiveProjects/SIMS.MM.DAL/SIMS.MM.Testing/bin/Debug/SIMS.MM.Testing.DLL" adapterTypeName="Microsoft.VisualStudio.TestTools.TestTypes.Unit.UnitTestAdapter, Microsoft.VisualStudio.QualityTools.Tips.UnitTest.Adapter, Version=10.0.0.0, Culture=neutral, PublicKeyToken=b03f5f7f11d50a3a" className="SIMS.MM.Testing.PurchasingTest, SIMS.MM.Testing, Version=1.0.0.0, Culture=neutral, PublicKeyToken=null" name="CreateNewMTR_Test" />
    </UnitTest>
    <UnitTest name="CreateSiteTest" storage="e:\liveprojects\sims.mm.dal\sims.mm.testing\bin\debug\sims.mm.testing.dll" id="f8b6e152-9cd9-4517-78c7-8192a48ee92d">
      <Execution id="b85aca5c-46d1-4203-bc41-a196c97f6cc2" />
      <TestMethod codeBase="E:/LiveProjects/SIMS.MM.DAL/SIMS.MM.Testing/bin/Debug/SIMS.MM.Testing.DLL" adapterTypeName="Microsoft.VisualStudio.TestTools.TestTypes.Unit.UnitTestAdapter, Microsoft.VisualStudio.QualityTools.Tips.UnitTest.Adapter, Version=10.0.0.0, Culture=neutral, PublicKeyToken=b03f5f7f11d50a3a" className="SIMS.MM.Testing.PurchasingTest, SIMS.MM.Testing, Version=1.0.0.0, Culture=neutral, PublicKeyToken=null" name="CreateSiteTest" />
    </UnitTest>
    <UnitTest name="GetAllowedItemId_test" storage="e:\liveprojects\sims.mm.dal\sims.mm.testing\bin\debug\sims.mm.testing.dll" id="dea93cd6-fff5-8aea-162a-a899db32f08d">
      <Execution id="335ec027-a03e-491a-9ed0-7beed2eb0234" />
      <TestMethod codeBase="E:/LiveProjects/SIMS.MM.DAL/SIMS.MM.Testing/bin/Debug/SIMS.MM.Testing.DLL" adapterTypeName="Microsoft.VisualStudio.TestTools.TestTypes.Unit.UnitTestAdapter, Microsoft.VisualStudio.QualityTools.Tips.UnitTest.Adapter, Version=10.0.0.0, Culture=neutral, PublicKeyToken=b03f5f7f11d50a3a" className="SIMS.MM.Testing.PurchasingTest, SIMS.MM.Testing, Version=1.0.0.0, Culture=neutral, PublicKeyToken=null" name="GetAllowedItemId_test" />
    </UnitTest>
    <UnitTest name="EmailtoVendor_test" storage="e:\liveprojects\sims.mm.dal\sims.mm.testing\bin\debug\sims.mm.testing.dll" id="86649f98-a16b-00d0-3552-445a5ea8ba07">
      <Execution id="a1ec7630-af13-4010-a773-a25c820597a5" />
      <TestMethod codeBase="E:/LiveProjects/SIMS.MM.DAL/SIMS.MM.Testing/bin/Debug/SIMS.MM.Testing.DLL" adapterTypeName="Microsoft.VisualStudio.TestTools.TestTypes.Unit.UnitTestAdapter, Microsoft.VisualStudio.QualityTools.Tips.UnitTest.Adapter, Version=10.0.0.0, Culture=neutral, PublicKeyToken=b03f5f7f11d50a3a" className="SIMS.MM.Testing.PurchasingTest, SIMS.MM.Testing, Version=1.0.0.0, Culture=neutral, PublicKeyToken=null" name="EmailtoVendor_test" />
    </UnitTest>
    <UnitTest name="Receiving_DirectPurchase_From_Database" storage="e:\liveprojects\sims.mm.dal\sims.mm.testing\bin\debug\sims.mm.testing.dll" id="055433d4-ba65-195c-511b-8e21e5de09b4">
      <Execution id="c5b9b88b-1fd3-400b-b625-2497922849bd" />
      <TestMethod codeBase="E:/LiveProjects/SIMS.MM.DAL/SIMS.MM.Testing/bin/Debug/SIMS.MM.Testing.DLL" adapterTypeName="Microsoft.VisualStudio.TestTools.TestTypes.Unit.UnitTestAdapter, Microsoft.VisualStudio.QualityTools.Tips.UnitTest.Adapter, Version=10.0.0.0, Culture=neutral, PublicKeyToken=b03f5f7f11d50a3a" className="SIMS.MM.Testing.PurchasingTest, SIMS.MM.Testing, Version=1.0.0.0, Culture=neutral, PublicKeyToken=null" name="Receiving_DirectPurchase_From_Database" />
    </UnitTest>
    <UnitTest name="GetMReceivingforMRReturnTest" storage="e:\liveprojects\sims.mm.dal\sims.mm.testing\bin\debug\sims.mm.testing.dll" id="aeaacb2a-0169-1b30-fd4b-a208dd732c05">
      <Execution id="f72318c3-3436-461e-85a0-bb0295a4b39a" />
      <TestMethod codeBase="E:/LiveProjects/SIMS.MM.DAL/SIMS.MM.Testing/bin/Debug/SIMS.MM.Testing.DLL" adapterTypeName="Microsoft.VisualStudio.TestTools.TestTypes.Unit.UnitTestAdapter, Microsoft.VisualStudio.QualityTools.Tips.UnitTest.Adapter, Version=10.0.0.0, Culture=neutral, PublicKeyToken=b03f5f7f11d50a3a" className="SIMS.MM.Testing.MRDataProviderTest, SIMS.MM.Testing, Version=1.0.0.0, Culture=neutral, PublicKeyToken=null" name="GetMReceivingforMRReturnTest" />
    </UnitTest>
    <UnitTest name="CreateNewVendorTest" storage="e:\liveprojects\sims.mm.dal\sims.mm.testing\bin\debug\sims.mm.testing.dll" id="e8abeb5c-f6eb-c017-08f7-de5f195efaf8">
      <Execution id="f1f08082-530f-47b9-81f5-fa400ac9ea98" />
      <TestMethod codeBase="E:/LiveProjects/SIMS.MM.DAL/SIMS.MM.Testing/bin/Debug/SIMS.MM.Testing.DLL" adapterTypeName="Microsoft.VisualStudio.TestTools.TestTypes.Unit.UnitTestAdapter, Microsoft.VisualStudio.QualityTools.Tips.UnitTest.Adapter, Version=10.0.0.0, Culture=neutral, PublicKeyToken=b03f5f7f11d50a3a" className="SIMS.MM.Testing.PurchasingTest, SIMS.MM.Testing, Version=1.0.0.0, Culture=neutral, PublicKeyToken=null" name="CreateNewVendorTest" />
    </UnitTest>
    <UnitTest name="CreateNewPricingTest" storage="e:\liveprojects\sims.mm.dal\sims.mm.testing\bin\debug\sims.mm.testing.dll" id="8082b35f-5cf4-4665-d6b3-daac84164ce7">
      <Execution id="eeafa3fd-04fb-4e0d-980a-064d5bde38c7" />
      <TestMethod codeBase="E:/LiveProjects/SIMS.MM.DAL/SIMS.MM.Testing/bin/Debug/SIMS.MM.Testing.DLL" adapterTypeName="Microsoft.VisualStudio.TestTools.TestTypes.Unit.UnitTestAdapter, Microsoft.VisualStudio.QualityTools.Tips.UnitTest.Adapter, Version=10.0.0.0, Culture=neutral, PublicKeyToken=b03f5f7f11d50a3a" className="SIMS.MM.Testing.MasterManagerTest, SIMS.MM.Testing, Version=1.0.0.0, Culture=neutral, PublicKeyToken=null" name="CreateNewPricingTest" />
    </UnitTest>
    <UnitTest name="ReportProviderConstructorTest" storage="e:\liveprojects\sims.mm.dal\sims.mm.testing\bin\debug\sims.mm.testing.dll" id="b784e822-6321-63ff-be0b-adceb685f0d1">
      <Execution id="71698685-615e-4d86-95aa-a26a53562f15" />
      <TestMethod codeBase="E:/LiveProjects/SIMS.MM.DAL/SIMS.MM.Testing/bin/Debug/SIMS.MM.Testing.DLL" adapterTypeName="Microsoft.VisualStudio.TestTools.TestTypes.Unit.UnitTestAdapter, Microsoft.VisualStudio.QualityTools.Tips.UnitTest.Adapter, Version=10.0.0.0, Culture=neutral, PublicKeyToken=b03f5f7f11d50a3a" className="SIMS.MM.Testing.ReportProviderTest, SIMS.MM.Testing, Version=1.0.0.0, Culture=neutral, PublicKeyToken=null" name="ReportProviderConstructorTest" />
    </UnitTest>
    <UnitTest name="GetPendingInfo_test" storage="e:\liveprojects\sims.mm.dal\sims.mm.testing\bin\debug\sims.mm.testing.dll" id="6c0e9b3d-e0df-e293-cfa1-514538733d05">
      <Execution id="2b99f2a5-4a9f-4bee-b9eb-86c2f59c6716" />
      <TestMethod codeBase="E:/LiveProjects/SIMS.MM.DAL/SIMS.MM.Testing/bin/Debug/SIMS.MM.Testing.DLL" adapterTypeName="Microsoft.VisualStudio.TestTools.TestTypes.Unit.UnitTestAdapter, Microsoft.VisualStudio.QualityTools.Tips.UnitTest.Adapter, Version=10.0.0.0, Culture=neutral, PublicKeyToken=b03f5f7f11d50a3a" className="SIMS.MM.Testing.PurchasingTest, SIMS.MM.Testing, Version=1.0.0.0, Culture=neutral, PublicKeyToken=null" name="GetPendingInfo_test" />
    </UnitTest>
    <UnitTest name="Receiving_CashPurchase_From_Database" storage="e:\liveprojects\sims.mm.dal\sims.mm.testing\bin\debug\sims.mm.testing.dll" id="a14b7c93-5115-bb50-e840-54d1053f0c5a">
      <Execution id="cf50b095-dd8d-415c-a069-052a6ab5d675" />
      <TestMethod codeBase="E:/LiveProjects/SIMS.MM.DAL/SIMS.MM.Testing/bin/Debug/SIMS.MM.Testing.DLL" adapterTypeName="Microsoft.VisualStudio.TestTools.TestTypes.Unit.UnitTestAdapter, Microsoft.VisualStudio.QualityTools.Tips.UnitTest.Adapter, Version=10.0.0.0, Culture=neutral, PublicKeyToken=b03f5f7f11d50a3a" className="SIMS.MM.Testing.PurchasingTest, SIMS.MM.Testing, Version=1.0.0.0, Culture=neutral, PublicKeyToken=null" name="Receiving_CashPurchase_From_Database" />
    </UnitTest>
    <UnitTest name="GetGetGRNDetails_test" storage="e:\liveprojects\sims.mm.dal\sims.mm.testing\bin\debug\sims.mm.testing.dll" id="810952d6-dd4a-ba87-e72a-9b489cd6a80c">
      <Execution id="6d74e118-26e8-4c8d-ad67-cf8e44195aaa" />
      <TestMethod codeBase="E:/LiveProjects/SIMS.MM.DAL/SIMS.MM.Testing/bin/Debug/SIMS.MM.Testing.DLL" adapterTypeName="Microsoft.VisualStudio.TestTools.TestTypes.Unit.UnitTestAdapter, Microsoft.VisualStudio.QualityTools.Tips.UnitTest.Adapter, Version=10.0.0.0, Culture=neutral, PublicKeyToken=b03f5f7f11d50a3a" className="SIMS.MM.Testing.PurchasingTest, SIMS.MM.Testing, Version=1.0.0.0, Culture=neutral, PublicKeyToken=null" name="GetGetGRNDetails_test" />
    </UnitTest>
    <UnitTest name="GetItemName_test" storage="e:\liveprojects\sims.mm.dal\sims.mm.testing\bin\debug\sims.mm.testing.dll" id="8f27c425-d355-1212-9adc-69a7ea9dd402">
      <Execution id="94b4802a-728d-4544-b613-f096d200f687" />
      <TestMethod codeBase="E:/LiveProjects/SIMS.MM.DAL/SIMS.MM.Testing/bin/Debug/SIMS.MM.Testing.DLL" adapterTypeName="Microsoft.VisualStudio.TestTools.TestTypes.Unit.UnitTestAdapter, Microsoft.VisualStudio.QualityTools.Tips.UnitTest.Adapter, Version=10.0.0.0, Culture=neutral, PublicKeyToken=b03f5f7f11d50a3a" className="SIMS.MM.Testing.PurchasingTest, SIMS.MM.Testing, Version=1.0.0.0, Culture=neutral, PublicKeyToken=null" name="GetItemName_test" />
    </UnitTest>
    <UnitTest name="ApprovePR_test" storage="e:\liveprojects\sims.mm.dal\sims.mm.testing\bin\debug\sims.mm.testing.dll" id="979c046b-b590-0239-6932-b88b32327593">
      <Execution id="920fcbc3-90bc-44db-beb0-c2def80797d4" />
      <TestMethod codeBase="E:/LiveProjects/SIMS.MM.DAL/SIMS.MM.Testing/bin/Debug/SIMS.MM.Testing.DLL" adapterTypeName="Microsoft.VisualStudio.TestTools.TestTypes.Unit.UnitTestAdapter, Microsoft.VisualStudio.QualityTools.Tips.UnitTest.Adapter, Version=10.0.0.0, Culture=neutral, PublicKeyToken=b03f5f7f11d50a3a" className="SIMS.MM.Testing.PurchasingTest, SIMS.MM.Testing, Version=1.0.0.0, Culture=neutral, PublicKeyToken=null" name="ApprovePR_test" />
    </UnitTest>
    <UnitTest name="Receiving_BUs_From_Database" storage="e:\liveprojects\sims.mm.dal\sims.mm.testing\bin\debug\sims.mm.testing.dll" id="b66965c6-720e-188d-e1c4-636f97748f1b">
      <Execution id="0140adb3-ad83-4b9f-9418-b03f8340d28a" />
      <TestMethod codeBase="E:/LiveProjects/SIMS.MM.DAL/SIMS.MM.Testing/bin/Debug/SIMS.MM.Testing.DLL" adapterTypeName="Microsoft.VisualStudio.TestTools.TestTypes.Unit.UnitTestAdapter, Microsoft.VisualStudio.QualityTools.Tips.UnitTest.Adapter, Version=10.0.0.0, Culture=neutral, PublicKeyToken=b03f5f7f11d50a3a" className="SIMS.MM.Testing.PurchasingTest, SIMS.MM.Testing, Version=1.0.0.0, Culture=neutral, PublicKeyToken=null" name="Receiving_BUs_From_Database" />
    </UnitTest>
    <UnitTest name="Receiving_Vendors_From_Database" storage="e:\liveprojects\sims.mm.dal\sims.mm.testing\bin\debug\sims.mm.testing.dll" id="0f21d640-9d65-aeca-1fb5-fd230140b14a">
      <Execution id="14b220b7-7dc6-4f19-b9f2-9badcb79f492" />
      <TestMethod codeBase="E:/LiveProjects/SIMS.MM.DAL/SIMS.MM.Testing/bin/Debug/SIMS.MM.Testing.DLL" adapterTypeName="Microsoft.VisualStudio.TestTools.TestTypes.Unit.UnitTestAdapter, Microsoft.VisualStudio.QualityTools.Tips.UnitTest.Adapter, Version=10.0.0.0, Culture=neutral, PublicKeyToken=b03f5f7f11d50a3a" className="SIMS.MM.Testing.PurchasingTest, SIMS.MM.Testing, Version=1.0.0.0, Culture=neutral, PublicKeyToken=null" name="Receiving_Vendors_From_Database" />
    </UnitTest>
    <UnitTest name="CreateMORelease_Test" storage="e:\liveprojects\sims.mm.dal\sims.mm.testing\bin\debug\sims.mm.testing.dll" id="93e5dda6-aed5-6213-c45c-368e0e5ca1fb">
      <Execution id="2df1d7eb-7091-41d5-a65b-927cb7dce7db" />
      <TestMethod codeBase="E:/LiveProjects/SIMS.MM.DAL/SIMS.MM.Testing/bin/Debug/SIMS.MM.Testing.DLL" adapterTypeName="Microsoft.VisualStudio.TestTools.TestTypes.Unit.UnitTestAdapter, Microsoft.VisualStudio.QualityTools.Tips.UnitTest.Adapter, Version=10.0.0.0, Culture=neutral, PublicKeyToken=b03f5f7f11d50a3a" className="SIMS.MM.Testing.PurchasingTest, SIMS.MM.Testing, Version=1.0.0.0, Culture=neutral, PublicKeyToken=null" name="CreateMORelease_Test" />
    </UnitTest>
    <UnitTest name="UpdatingSiteTest" storage="e:\liveprojects\sims.mm.dal\sims.mm.testing\bin\debug\sims.mm.testing.dll" id="e6ff57f6-944b-23b0-09d0-6af58901e218">
      <Execution id="d251a471-2357-4891-abe6-323ed645dd17" />
      <TestMethod codeBase="E:/LiveProjects/SIMS.MM.DAL/SIMS.MM.Testing/bin/Debug/SIMS.MM.Testing.DLL" adapterTypeName="Microsoft.VisualStudio.TestTools.TestTypes.Unit.UnitTestAdapter, Microsoft.VisualStudio.QualityTools.Tips.UnitTest.Adapter, Version=10.0.0.0, Culture=neutral, PublicKeyToken=b03f5f7f11d50a3a" className="SIMS.MM.Testing.PurchasingTest, SIMS.MM.Testing, Version=1.0.0.0, Culture=neutral, PublicKeyToken=null" name="UpdatingSiteTest" />
    </UnitTest>
    <UnitTest name="GetDetailedStocReport_test" storage="e:\liveprojects\sims.mm.dal\sims.mm.testing\bin\debug\sims.mm.testing.dll" id="b357036b-5418-48d6-0d06-a0b0db5c99f5">
      <Execution id="8600bd3e-4f70-41d2-8509-f4a546b71472" />
      <TestMethod codeBase="E:/LiveProjects/SIMS.MM.DAL/SIMS.MM.Testing/bin/Debug/SIMS.MM.Testing.DLL" adapterTypeName="Microsoft.VisualStudio.TestTools.TestTypes.Unit.UnitTestAdapter, Microsoft.VisualStudio.QualityTools.Tips.UnitTest.Adapter, Version=10.0.0.0, Culture=neutral, PublicKeyToken=b03f5f7f11d50a3a" className="SIMS.MM.Testing.PurchasingTest, SIMS.MM.Testing, Version=1.0.0.0, Culture=neutral, PublicKeyToken=null" name="GetDetailedStocReport_test" />
    </UnitTest>
    <UnitTest name="CloseMRTest" storage="e:\liveprojects\sims.mm.dal\sims.mm.testing\bin\debug\sims.mm.testing.dll" id="c2d35fc8-9e6e-9781-19df-627e43c3824b">
      <Execution id="8d787c03-ffaa-4dc2-8493-3625bcd55288" />
      <TestMethod codeBase="E:/LiveProjects/SIMS.MM.DAL/SIMS.MM.Testing/bin/Debug/SIMS.MM.Testing.DLL" adapterTypeName="Microsoft.VisualStudio.TestTools.TestTypes.Unit.UnitTestAdapter, Microsoft.VisualStudio.QualityTools.Tips.UnitTest.Adapter, Version=10.0.0.0, Culture=neutral, PublicKeyToken=b03f5f7f11d50a3a" className="SIMS.MM.Testing.MRManagerTest, SIMS.MM.Testing, Version=1.0.0.0, Culture=neutral, PublicKeyToken=null" name="CloseMRTest" />
    </UnitTest>
    <UnitTest name="DeletePR_test" storage="e:\liveprojects\sims.mm.dal\sims.mm.testing\bin\debug\sims.mm.testing.dll" id="1acd81dd-fe44-9707-229e-5e25a064b827">
      <Execution id="00c32e26-6b91-4406-a63f-db3f3c344b3e" />
      <TestMethod codeBase="E:/LiveProjects/SIMS.MM.DAL/SIMS.MM.Testing/bin/Debug/SIMS.MM.Testing.DLL" adapterTypeName="Microsoft.VisualStudio.TestTools.TestTypes.Unit.UnitTestAdapter, Microsoft.VisualStudio.QualityTools.Tips.UnitTest.Adapter, Version=10.0.0.0, Culture=neutral, PublicKeyToken=b03f5f7f11d50a3a" className="SIMS.MM.Testing.PurchasingTest, SIMS.MM.Testing, Version=1.0.0.0, Culture=neutral, PublicKeyToken=null" name="DeletePR_test" />
    </UnitTest>
    <UnitTest name="Convert_To_PO_test" storage="e:\liveprojects\sims.mm.dal\sims.mm.testing\bin\debug\sims.mm.testing.dll" id="1ca5e715-f788-6e44-96ac-d3499e024638">
      <Execution id="bb50f6a1-b1ee-4c5f-87a3-2848df7b4d3c" />
      <TestMethod codeBase="E:/LiveProjects/SIMS.MM.DAL/SIMS.MM.Testing/bin/Debug/SIMS.MM.Testing.DLL" adapterTypeName="Microsoft.VisualStudio.TestTools.TestTypes.Unit.UnitTestAdapter, Microsoft.VisualStudio.QualityTools.Tips.UnitTest.Adapter, Version=10.0.0.0, Culture=neutral, PublicKeyToken=b03f5f7f11d50a3a" className="SIMS.MM.Testing.PurchasingTest, SIMS.MM.Testing, Version=1.0.0.0, Culture=neutral, PublicKeyToken=null" name="Convert_To_PO_test" />
    </UnitTest>
    <UnitTest name="GetMReceivingforMoRelease_Test" storage="e:\liveprojects\sims.mm.dal\sims.mm.testing\bin\debug\sims.mm.testing.dll" id="e08bd988-f96e-2a93-f4d1-2b29b8093ced">
      <Execution id="55a60588-e431-4d97-87e5-0129a2721082" />
      <TestMethod codeBase="E:/LiveProjects/SIMS.MM.DAL/SIMS.MM.Testing/bin/Debug/SIMS.MM.Testing.DLL" adapterTypeName="Microsoft.VisualStudio.TestTools.TestTypes.Unit.UnitTestAdapter, Microsoft.VisualStudio.QualityTools.Tips.UnitTest.Adapter, Version=10.0.0.0, Culture=neutral, PublicKeyToken=b03f5f7f11d50a3a" className="SIMS.MM.Testing.PurchasingTest, SIMS.MM.Testing, Version=1.0.0.0, Culture=neutral, PublicKeyToken=null" name="GetMReceivingforMoRelease_Test" />
    </UnitTest>
    <UnitTest name="GetItemCategories_TEst" storage="e:\liveprojects\sims.mm.dal\sims.mm.testing\bin\debug\sims.mm.testing.dll" id="e6df67a5-e24d-2094-6c9f-406d51bfcfdf">
      <Execution id="46931ed2-82dd-488b-b86d-e297940fed90" />
      <TestMethod codeBase="E:/LiveProjects/SIMS.MM.DAL/SIMS.MM.Testing/bin/Debug/SIMS.MM.Testing.DLL" adapterTypeName="Microsoft.VisualStudio.TestTools.TestTypes.Unit.UnitTestAdapter, Microsoft.VisualStudio.QualityTools.Tips.UnitTest.Adapter, Version=10.0.0.0, Culture=neutral, PublicKeyToken=b03f5f7f11d50a3a" className="SIMS.MM.Testing.PurchasingTest, SIMS.MM.Testing, Version=1.0.0.0, Culture=neutral, PublicKeyToken=null" name="GetItemCategories_TEst" />
    </UnitTest>
    <UnitTest name="CreateMOReceive_Test" storage="e:\liveprojects\sims.mm.dal\sims.mm.testing\bin\debug\sims.mm.testing.dll" id="4d0dd6f5-e220-a941-769f-8a3c629751cf">
      <Execution id="4f2a9db6-55bb-4e95-830a-c7a91a57aa5d" />
      <TestMethod codeBase="E:/LiveProjects/SIMS.MM.DAL/SIMS.MM.Testing/bin/Debug/SIMS.MM.Testing.DLL" adapterTypeName="Microsoft.VisualStudio.TestTools.TestTypes.Unit.UnitTestAdapter, Microsoft.VisualStudio.QualityTools.Tips.UnitTest.Adapter, Version=10.0.0.0, Culture=neutral, PublicKeyToken=b03f5f7f11d50a3a" className="SIMS.MM.Testing.PurchasingTest, SIMS.MM.Testing, Version=1.0.0.0, Culture=neutral, PublicKeyToken=null" name="CreateMOReceive_Test" />
    </UnitTest>
    <UnitTest name="GetAllMasterPriceTest" storage="e:\liveprojects\sims.mm.dal\sims.mm.testing\bin\debug\sims.mm.testing.dll" id="db97c3c7-17ff-da0a-0c75-0a7caa911b03">
      <Execution id="4fce78e7-c320-425a-bfe0-6e7c8d0b25ad" />
      <TestMethod codeBase="E:/LiveProjects/SIMS.MM.DAL/SIMS.MM.Testing/bin/Debug/SIMS.MM.Testing.DLL" adapterTypeName="Microsoft.VisualStudio.TestTools.TestTypes.Unit.UnitTestAdapter, Microsoft.VisualStudio.QualityTools.Tips.UnitTest.Adapter, Version=10.0.0.0, Culture=neutral, PublicKeyToken=b03f5f7f11d50a3a" className="SIMS.MM.Testing.MasterDataProvierTest, SIMS.MM.Testing, Version=1.0.0.0, Culture=neutral, PublicKeyToken=null" name="GetAllMasterPriceTest" />
    </UnitTest>
    <UnitTest name="CreateNewMU_TEst" storage="e:\liveprojects\sims.mm.dal\sims.mm.testing\bin\debug\sims.mm.testing.dll" id="430653e7-abd8-0e9a-eb20-76de44cd27ca">
      <Execution id="88a0716d-fa58-427e-b562-67b1cf2b4318" />
      <TestMethod codeBase="E:/LiveProjects/SIMS.MM.DAL/SIMS.MM.Testing/bin/Debug/SIMS.MM.Testing.DLL" adapterTypeName="Microsoft.VisualStudio.TestTools.TestTypes.Unit.UnitTestAdapter, Microsoft.VisualStudio.QualityTools.Tips.UnitTest.Adapter, Version=10.0.0.0, Culture=neutral, PublicKeyToken=b03f5f7f11d50a3a" className="SIMS.MM.Testing.PurchasingTest, SIMS.MM.Testing, Version=1.0.0.0, Culture=neutral, PublicKeyToken=null" name="CreateNewMU_TEst" />
    </UnitTest>
    <UnitTest name="Receiving_Items_From_Database" storage="e:\liveprojects\sims.mm.dal\sims.mm.testing\bin\debug\sims.mm.testing.dll" id="4b669768-3474-12e8-4b2b-dc085b26333d">
      <Execution id="b0710134-8b8d-4d95-8309-49d00b801d4a" />
      <TestMethod codeBase="E:/LiveProjects/SIMS.MM.DAL/SIMS.MM.Testing/bin/Debug/SIMS.MM.Testing.DLL" adapterTypeName="Microsoft.VisualStudio.TestTools.TestTypes.Unit.UnitTestAdapter, Microsoft.VisualStudio.QualityTools.Tips.UnitTest.Adapter, Version=10.0.0.0, Culture=neutral, PublicKeyToken=b03f5f7f11d50a3a" className="SIMS.MM.Testing.PurchasingTest, SIMS.MM.Testing, Version=1.0.0.0, Culture=neutral, PublicKeyToken=null" name="Receiving_Items_From_Database" />
    </UnitTest>
    <UnitTest name="UpdatingVendorTest" storage="e:\liveprojects\sims.mm.dal\sims.mm.testing\bin\debug\sims.mm.testing.dll" id="5b03fc8c-8191-d8e7-41bc-d578a47fd4c6">
      <Execution id="a09b48cd-7fe0-4d9e-9765-92cb49a3da7f" />
      <TestMethod codeBase="E:/LiveProjects/SIMS.MM.DAL/SIMS.MM.Testing/bin/Debug/SIMS.MM.Testing.DLL" adapterTypeName="Microsoft.VisualStudio.TestTools.TestTypes.Unit.UnitTestAdapter, Microsoft.VisualStudio.QualityTools.Tips.UnitTest.Adapter, Version=10.0.0.0, Culture=neutral, PublicKeyToken=b03f5f7f11d50a3a" className="SIMS.MM.Testing.PurchasingTest, SIMS.MM.Testing, Version=1.0.0.0, Culture=neutral, PublicKeyToken=null" name="UpdatingVendorTest" />
    </UnitTest>
    <UnitTest name="GetDPReports_test" storage="e:\liveprojects\sims.mm.dal\sims.mm.testing\bin\debug\sims.mm.testing.dll" id="abcdad69-54ac-6e8a-f8d7-eed774676927">
      <Execution id="8ce661f5-e50e-4eaa-85c2-2b916ec5b018" />
      <TestMethod codeBase="E:/LiveProjects/SIMS.MM.DAL/SIMS.MM.Testing/bin/Debug/SIMS.MM.Testing.DLL" adapterTypeName="Microsoft.VisualStudio.TestTools.TestTypes.Unit.UnitTestAdapter, Microsoft.VisualStudio.QualityTools.Tips.UnitTest.Adapter, Version=10.0.0.0, Culture=neutral, PublicKeyToken=b03f5f7f11d50a3a" className="SIMS.MM.Testing.PurchasingTest, SIMS.MM.Testing, Version=1.0.0.0, Culture=neutral, PublicKeyToken=null" name="GetDPReports_test" />
    </UnitTest>
    <UnitTest name="CreateNewDirectPurchaseTest" storage="e:\liveprojects\sims.mm.dal\sims.mm.testing\bin\debug\sims.mm.testing.dll" id="d9017a87-3bad-342d-9d8a-7a22a6e82a65">
      <Execution id="403005be-05e3-4a1f-a54b-d086411c381a" />
      <TestMethod codeBase="E:/LiveProjects/SIMS.MM.DAL/SIMS.MM.Testing/bin/Debug/SIMS.MM.Testing.DLL" adapterTypeName="Microsoft.VisualStudio.TestTools.TestTypes.Unit.UnitTestAdapter, Microsoft.VisualStudio.QualityTools.Tips.UnitTest.Adapter, Version=10.0.0.0, Culture=neutral, PublicKeyToken=b03f5f7f11d50a3a" className="SIMS.MM.Testing.PurchasingTest, SIMS.MM.Testing, Version=1.0.0.0, Culture=neutral, PublicKeyToken=null" name="CreateNewDirectPurchaseTest" />
    </UnitTest>
    <UnitTest name="GetMReceivingforMRIssueTest" storage="e:\liveprojects\sims.mm.dal\sims.mm.testing\bin\debug\sims.mm.testing.dll" id="29e354b4-9397-2d87-db7d-12691485a613">
      <Execution id="c136b8a3-adfa-4068-b86c-d3937fe964e8" />
      <TestMethod codeBase="E:/LiveProjects/SIMS.MM.DAL/SIMS.MM.Testing/bin/Debug/SIMS.MM.Testing.DLL" adapterTypeName="Microsoft.VisualStudio.TestTools.TestTypes.Unit.UnitTestAdapter, Microsoft.VisualStudio.QualityTools.Tips.UnitTest.Adapter, Version=10.0.0.0, Culture=neutral, PublicKeyToken=b03f5f7f11d50a3a" className="SIMS.MM.Testing.MRDataProviderTest, SIMS.MM.Testing, Version=1.0.0.0, Culture=neutral, PublicKeyToken=null" name="GetMReceivingforMRIssueTest" />
    </UnitTest>
    <UnitTest name="Receiving_MOs_From_Database" storage="e:\liveprojects\sims.mm.dal\sims.mm.testing\bin\debug\sims.mm.testing.dll" id="8ddfe342-66d1-f332-0524-c99a190b3590">
      <Execution id="bcc514dc-1479-4e35-b45e-d4276500f52d" />
      <TestMethod codeBase="E:/LiveProjects/SIMS.MM.DAL/SIMS.MM.Testing/bin/Debug/SIMS.MM.Testing.DLL" adapterTypeName="Microsoft.VisualStudio.TestTools.TestTypes.Unit.UnitTestAdapter, Microsoft.VisualStudio.QualityTools.Tips.UnitTest.Adapter, Version=10.0.0.0, Culture=neutral, PublicKeyToken=b03f5f7f11d50a3a" className="SIMS.MM.Testing.PurchasingTest, SIMS.MM.Testing, Version=1.0.0.0, Culture=neutral, PublicKeyToken=null" name="Receiving_MOs_From_Database" />
    </UnitTest>
    <UnitTest name="UpdatingPRTest" storage="e:\liveprojects\sims.mm.dal\sims.mm.testing\bin\debug\sims.mm.testing.dll" id="a89e6e5c-f903-4df6-a82c-3d1f05887f89">
      <Execution id="594fb478-991f-4372-a9c5-399ccbb120e1" />
      <TestMethod codeBase="E:/LiveProjects/SIMS.MM.DAL/SIMS.MM.Testing/bin/Debug/SIMS.MM.Testing.DLL" adapterTypeName="Microsoft.VisualStudio.TestTools.TestTypes.Unit.UnitTestAdapter, Microsoft.VisualStudio.QualityTools.Tips.UnitTest.Adapter, Version=10.0.0.0, Culture=neutral, PublicKeyToken=b03f5f7f11d50a3a" className="SIMS.MM.Testing.PurchasingTest, SIMS.MM.Testing, Version=1.0.0.0, Culture=neutral, PublicKeyToken=null" name="UpdatingPRTest" />
    </UnitTest>
    <UnitTest name="CreateNewCashPurchaseTest" storage="e:\liveprojects\sims.mm.dal\sims.mm.testing\bin\debug\sims.mm.testing.dll" id="0d746ed3-ec52-59b8-ca9e-f91ecf5cb9ec">
      <Execution id="a4317903-6f8b-4e1c-ab15-0400992f310a" />
      <TestMethod codeBase="E:/LiveProjects/SIMS.MM.DAL/SIMS.MM.Testing/bin/Debug/SIMS.MM.Testing.DLL" adapterTypeName="Microsoft.VisualStudio.TestTools.TestTypes.Unit.UnitTestAdapter, Microsoft.VisualStudio.QualityTools.Tips.UnitTest.Adapter, Version=10.0.0.0, Culture=neutral, PublicKeyToken=b03f5f7f11d50a3a" className="SIMS.MM.Testing.PurchasingTest, SIMS.MM.Testing, Version=1.0.0.0, Culture=neutral, PublicKeyToken=null" name="CreateNewCashPurchaseTest" />
    </UnitTest>
    <UnitTest name="Receiving_POs_From_Database" storage="e:\liveprojects\sims.mm.dal\sims.mm.testing\bin\debug\sims.mm.testing.dll" id="d8caa417-c345-46ba-c5c1-98154f87be91">
      <Execution id="accc64a5-e064-4b6d-bbb9-47fb420e5b10" />
      <TestMethod codeBase="E:/LiveProjects/SIMS.MM.DAL/SIMS.MM.Testing/bin/Debug/SIMS.MM.Testing.DLL" adapterTypeName="Microsoft.VisualStudio.TestTools.TestTypes.Unit.UnitTestAdapter, Microsoft.VisualStudio.QualityTools.Tips.UnitTest.Adapter, Version=10.0.0.0, Culture=neutral, PublicKeyToken=b03f5f7f11d50a3a" className="SIMS.MM.Testing.PurchasingTest, SIMS.MM.Testing, Version=1.0.0.0, Culture=neutral, PublicKeyToken=null" name="Receiving_POs_From_Database" />
    </UnitTest>
    <UnitTest name="GetAllowedItenId_test" storage="e:\liveprojects\sims.mm.dal\sims.mm.testing\bin\debug\sims.mm.testing.dll" id="b256cb18-9004-1e5f-373b-d9fbf2688b91">
      <Execution id="d8b30058-8cf2-44ad-87df-50aab82e960d" />
      <TestMethod codeBase="E:/LiveProjects/SIMS.MM.DAL/SIMS.MM.Testing/bin/Debug/SIMS.MM.Testing.DLL" adapterTypeName="Microsoft.VisualStudio.TestTools.TestTypes.Unit.UnitTestAdapter, Microsoft.VisualStudio.QualityTools.Tips.UnitTest.Adapter, Version=10.0.0.0, Culture=neutral, PublicKeyToken=b03f5f7f11d50a3a" className="SIMS.MM.Testing.PurchasingTest, SIMS.MM.Testing, Version=1.0.0.0, Culture=neutral, PublicKeyToken=null" name="GetAllowedItenId_test" />
    </UnitTest>
    <UnitTest name="GetMRByIDTest" storage="e:\liveprojects\sims.mm.dal\sims.mm.testing\bin\debug\sims.mm.testing.dll" id="74becb99-b2e8-1365-5613-00f1dbb3126d">
      <Execution id="282ce506-2f1a-4402-9140-a8dcc2730413" />
      <TestMethod codeBase="E:/LiveProjects/SIMS.MM.DAL/SIMS.MM.Testing/bin/Debug/SIMS.MM.Testing.DLL" adapterTypeName="Microsoft.VisualStudio.TestTools.TestTypes.Unit.UnitTestAdapter, Microsoft.VisualStudio.QualityTools.Tips.UnitTest.Adapter, Version=10.0.0.0, Culture=neutral, PublicKeyToken=b03f5f7f11d50a3a" className="SIMS.MM.Testing.MRDataProviderTest, SIMS.MM.Testing, Version=1.0.0.0, Culture=neutral, PublicKeyToken=null" name="GetMRByIDTest" />
    </UnitTest>
    <UnitTest name="CreatingNewPRTest" storage="e:\liveprojects\sims.mm.dal\sims.mm.testing\bin\debug\sims.mm.testing.dll" id="59b4f148-6ae0-da8a-4d28-496ec231c0d9">
      <Execution id="cc013572-e013-48e0-b67f-abdc9571eac1" />
      <TestMethod codeBase="E:/LiveProjects/SIMS.MM.DAL/SIMS.MM.Testing/bin/Debug/SIMS.MM.Testing.DLL" adapterTypeName="Microsoft.VisualStudio.TestTools.TestTypes.Unit.UnitTestAdapter, Microsoft.VisualStudio.QualityTools.Tips.UnitTest.Adapter, Version=10.0.0.0, Culture=neutral, PublicKeyToken=b03f5f7f11d50a3a" className="SIMS.MM.Testing.PurchasingTest, SIMS.MM.Testing, Version=1.0.0.0, Culture=neutral, PublicKeyToken=null" name="CreatingNewPRTest" />
    </UnitTest>
    <UnitTest name="GetMRHeadersTest" storage="e:\liveprojects\sims.mm.dal\sims.mm.testing\bin\debug\sims.mm.testing.dll" id="a4390120-f936-dbc8-a62f-28926c425890">
      <Execution id="bbb8f243-0029-41f8-a85d-c532257c534c" />
      <TestMethod codeBase="E:/LiveProjects/SIMS.MM.DAL/SIMS.MM.Testing/bin/Debug/SIMS.MM.Testing.DLL" adapterTypeName="Microsoft.VisualStudio.TestTools.TestTypes.Unit.UnitTestAdapter, Microsoft.VisualStudio.QualityTools.Tips.UnitTest.Adapter, Version=10.0.0.0, Culture=neutral, PublicKeyToken=b03f5f7f11d50a3a" className="SIMS.MM.Testing.MRDataProviderTest, SIMS.MM.Testing, Version=1.0.0.0, Culture=neutral, PublicKeyToken=null" name="GetMRHeadersTest" />
    </UnitTest>
    <UnitTest name="GetAllTransporters_test" storage="e:\liveprojects\sims.mm.dal\sims.mm.testing\bin\debug\sims.mm.testing.dll" id="71b8d983-3c01-2df0-3909-8505f9b33ddd">
      <Execution id="127b6367-b6a2-4149-a53f-6833b3d388e6" />
      <TestMethod codeBase="E:/LiveProjects/SIMS.MM.DAL/SIMS.MM.Testing/bin/Debug/SIMS.MM.Testing.DLL" adapterTypeName="Microsoft.VisualStudio.TestTools.TestTypes.Unit.UnitTestAdapter, Microsoft.VisualStudio.QualityTools.Tips.UnitTest.Adapter, Version=10.0.0.0, Culture=neutral, PublicKeyToken=b03f5f7f11d50a3a" className="SIMS.MM.Testing.PurchasingTest, SIMS.MM.Testing, Version=1.0.0.0, Culture=neutral, PublicKeyToken=null" name="GetAllTransporters_test" />
    </UnitTest>
    <UnitTest name="TotalReceiveBySiteAndDatesTest" storage="e:\liveprojects\sims.mm.dal\sims.mm.testing\bin\debug\sims.mm.testing.dll" id="33cafe69-70df-ea1e-8149-22c3b1f6cb28">
      <Execution id="0c97cbf0-11ae-401b-9a27-25a027512fc4" />
      <TestMethod codeBase="E:/LiveProjects/SIMS.MM.DAL/SIMS.MM.Testing/bin/Debug/SIMS.MM.Testing.DLL" adapterTypeName="Microsoft.VisualStudio.TestTools.TestTypes.Unit.UnitTestAdapter, Microsoft.VisualStudio.QualityTools.Tips.UnitTest.Adapter, Version=10.0.0.0, Culture=neutral, PublicKeyToken=b03f5f7f11d50a3a" className="SIMS.MM.Testing.ReportProviderTest, SIMS.MM.Testing, Version=1.0.0.0, Culture=neutral, PublicKeyToken=null" name="TotalReceiveBySiteAndDatesTest" />
    </UnitTest>
    <UnitTest name="CreateNewReceivingTest" storage="e:\liveprojects\sims.mm.dal\sims.mm.testing\bin\debug\sims.mm.testing.dll" id="0dc5820f-0ec2-cbec-5744-2e35fc2a5f6a">
      <Execution id="358cf019-f3e2-426a-8766-2d67d47ccb9d" />
      <TestMethod codeBase="E:/LiveProjects/SIMS.MM.DAL/SIMS.MM.Testing/bin/Debug/SIMS.MM.Testing.DLL" adapterTypeName="Microsoft.VisualStudio.TestTools.TestTypes.Unit.UnitTestAdapter, Microsoft.VisualStudio.QualityTools.Tips.UnitTest.Adapter, Version=10.0.0.0, Culture=neutral, PublicKeyToken=b03f5f7f11d50a3a" className="SIMS.MM.Testing.PurchasingTest, SIMS.MM.Testing, Version=1.0.0.0, Culture=neutral, PublicKeyToken=null" name="CreateNewReceivingTest" />
    </UnitTest>
    <UnitTest name="CreateNewItemTest" storage="e:\liveprojects\sims.mm.dal\sims.mm.testing\bin\debug\sims.mm.testing.dll" id="dbb2e6c1-6f4d-407b-d1ab-4f3fb1e644a8">
      <Execution id="15f7a0bf-c1e2-4344-9802-735416ceb86b" />
      <TestMethod codeBase="E:/LiveProjects/SIMS.MM.DAL/SIMS.MM.Testing/bin/Debug/SIMS.MM.Testing.DLL" adapterTypeName="Microsoft.VisualStudio.TestTools.TestTypes.Unit.UnitTestAdapter, Microsoft.VisualStudio.QualityTools.Tips.UnitTest.Adapter, Version=10.0.0.0, Culture=neutral, PublicKeyToken=b03f5f7f11d50a3a" className="SIMS.MM.Testing.PurchasingTest, SIMS.MM.Testing, Version=1.0.0.0, Culture=neutral, PublicKeyToken=null" name="CreateNewItemTest" />
    </UnitTest>
    <UnitTest name="GetAllMUs_test" storage="e:\liveprojects\sims.mm.dal\sims.mm.testing\bin\debug\sims.mm.testing.dll" id="67bb80a5-b8d8-5ab7-3eca-810888531470">
      <Execution id="ef87b36b-7659-4437-9d11-7b83129d53ae" />
      <TestMethod codeBase="E:/LiveProjects/SIMS.MM.DAL/SIMS.MM.Testing/bin/Debug/SIMS.MM.Testing.DLL" adapterTypeName="Microsoft.VisualStudio.TestTools.TestTypes.Unit.UnitTestAdapter, Microsoft.VisualStudio.QualityTools.Tips.UnitTest.Adapter, Version=10.0.0.0, Culture=neutral, PublicKeyToken=b03f5f7f11d50a3a" className="SIMS.MM.Testing.PurchasingTest, SIMS.MM.Testing, Version=1.0.0.0, Culture=neutral, PublicKeyToken=null" name="GetAllMUs_test" />
    </UnitTest>
    <UnitTest name="UpdatingTransporterTest" storage="e:\liveprojects\sims.mm.dal\sims.mm.testing\bin\debug\sims.mm.testing.dll" id="d75a6892-3834-bc1b-623f-6626dd742878">
      <Execution id="2deb7a4e-5b01-4a4b-bde4-ffce31b58324" />
      <TestMethod codeBase="E:/LiveProjects/SIMS.MM.DAL/SIMS.MM.Testing/bin/Debug/SIMS.MM.Testing.DLL" adapterTypeName="Microsoft.VisualStudio.TestTools.TestTypes.Unit.UnitTestAdapter, Microsoft.VisualStudio.QualityTools.Tips.UnitTest.Adapter, Version=10.0.0.0, Culture=neutral, PublicKeyToken=b03f5f7f11d50a3a" className="SIMS.MM.Testing.PurchasingTest, SIMS.MM.Testing, Version=1.0.0.0, Culture=neutral, PublicKeyToken=null" name="UpdatingTransporterTest" />
    </UnitTest>
    <UnitTest name="GetMOBy_Id_test" storage="e:\liveprojects\sims.mm.dal\sims.mm.testing\bin\debug\sims.mm.testing.dll" id="73387a6a-55cb-8bf2-363a-d240a9374cd3">
      <Execution id="7eab33b4-240e-40ff-986e-88415021894c" />
      <TestMethod codeBase="E:/LiveProjects/SIMS.MM.DAL/SIMS.MM.Testing/bin/Debug/SIMS.MM.Testing.DLL" adapterTypeName="Microsoft.VisualStudio.TestTools.TestTypes.Unit.UnitTestAdapter, Microsoft.VisualStudio.QualityTools.Tips.UnitTest.Adapter, Version=10.0.0.0, Culture=neutral, PublicKeyToken=b03f5f7f11d50a3a" className="SIMS.MM.Testing.PurchasingTest, SIMS.MM.Testing, Version=1.0.0.0, Culture=neutral, PublicKeyToken=null" name="GetMOBy_Id_test" />
    </UnitTest>
    <UnitTest name="CreateNewConsumptionTest" storage="e:\liveprojects\sims.mm.dal\sims.mm.testing\bin\debug\sims.mm.testing.dll" id="cb429da4-88b6-06ca-638a-b93ccd0df65c">
      <Execution id="3225cfbc-bea8-47c8-883b-941a8e5c0a4b" />
      <TestMethod codeBase="E:/LiveProjects/SIMS.MM.DAL/SIMS.MM.Testing/bin/Debug/SIMS.MM.Testing.DLL" adapterTypeName="Microsoft.VisualStudio.TestTools.TestTypes.Unit.UnitTestAdapter, Microsoft.VisualStudio.QualityTools.Tips.UnitTest.Adapter, Version=10.0.0.0, Culture=neutral, PublicKeyToken=b03f5f7f11d50a3a" className="SIMS.MM.Testing.PurchasingTest, SIMS.MM.Testing, Version=1.0.0.0, Culture=neutral, PublicKeyToken=null" name="CreateNewConsumptionTest" />
    </UnitTest>
    <UnitTest name="GetPODetailsByLineTest" storage="e:\liveprojects\sims.mm.dal\sims.mm.testing\bin\debug\sims.mm.testing.dll" id="3ed40c53-97fd-afbd-61cb-1b485997dd1d">
      <Execution id="4b39df3c-e6e7-4468-a2d5-70e555aa8986" />
      <TestMethod codeBase="E:/LiveProjects/SIMS.MM.DAL/SIMS.MM.Testing/bin/Debug/SIMS.MM.Testing.DLL" adapterTypeName="Microsoft.VisualStudio.TestTools.TestTypes.Unit.UnitTestAdapter, Microsoft.VisualStudio.QualityTools.Tips.UnitTest.Adapter, Version=10.0.0.0, Culture=neutral, PublicKeyToken=b03f5f7f11d50a3a" className="SIMS.MM.Testing.ReportProviderTest, SIMS.MM.Testing, Version=1.0.0.0, Culture=neutral, PublicKeyToken=null" name="GetPODetailsByLineTest" />
    </UnitTest>
    <UnitTest name="CreateMRReturnTest" storage="e:\liveprojects\sims.mm.dal\sims.mm.testing\bin\debug\sims.mm.testing.dll" id="c6b376e0-417f-7f41-ec14-5920a23b9ea9">
      <Execution id="e9695bfc-63f5-4b88-b8fc-fee58a83328e" />
      <TestMethod codeBase="E:/LiveProjects/SIMS.MM.DAL/SIMS.MM.Testing/bin/Debug/SIMS.MM.Testing.DLL" adapterTypeName="Microsoft.VisualStudio.TestTools.TestTypes.Unit.UnitTestAdapter, Microsoft.VisualStudio.QualityTools.Tips.UnitTest.Adapter, Version=10.0.0.0, Culture=neutral, PublicKeyToken=b03f5f7f11d50a3a" className="SIMS.MM.Testing.MRManagerTest, SIMS.MM.Testing, Version=1.0.0.0, Culture=neutral, PublicKeyToken=null" name="CreateMRReturnTest" />
    </UnitTest>
    <UnitTest name="GetAllUsers_test" storage="e:\liveprojects\sims.mm.dal\sims.mm.testing\bin\debug\sims.mm.testing.dll" id="8f0151ec-d440-6d92-9028-099c0f2654c6">
      <Execution id="c05580e4-ba02-411c-92fd-c5427730fcc8" />
      <TestMethod codeBase="E:/LiveProjects/SIMS.MM.DAL/SIMS.MM.Testing/bin/Debug/SIMS.MM.Testing.DLL" adapterTypeName="Microsoft.VisualStudio.TestTools.TestTypes.Unit.UnitTestAdapter, Microsoft.VisualStudio.QualityTools.Tips.UnitTest.Adapter, Version=10.0.0.0, Culture=neutral, PublicKeyToken=b03f5f7f11d50a3a" className="SIMS.MM.Testing.PurchasingTest, SIMS.MM.Testing, Version=1.0.0.0, Culture=neutral, PublicKeyToken=null" name="GetAllUsers_test" />
    </UnitTest>
    <UnitTest name="TotalReceiveByDatesTest" storage="e:\liveprojects\sims.mm.dal\sims.mm.testing\bin\debug\sims.mm.testing.dll" id="29b45fdb-97da-f933-f402-6c63f27f28ea">
      <Execution id="49101edf-96d6-41d5-b165-646d7bbb93a8" />
      <TestMethod codeBase="E:/LiveProjects/SIMS.MM.DAL/SIMS.MM.Testing/bin/Debug/SIMS.MM.Testing.DLL" adapterTypeName="Microsoft.VisualStudio.TestTools.TestTypes.Unit.UnitTestAdapter, Microsoft.VisualStudio.QualityTools.Tips.UnitTest.Adapter, Version=10.0.0.0, Culture=neutral, PublicKeyToken=b03f5f7f11d50a3a" className="SIMS.MM.Testing.ReportProviderTest, SIMS.MM.Testing, Version=1.0.0.0, Culture=neutral, PublicKeyToken=null" name="TotalReceiveByDatesTest" />
    </UnitTest>
    <UnitTest name="GetMReceivingforMoReceiving_Test" storage="e:\liveprojects\sims.mm.dal\sims.mm.testing\bin\debug\sims.mm.testing.dll" id="5cc33ed9-7bb6-33b8-cad4-2aea1ea4c2d2">
      <Execution id="79e86ec2-5d9d-4d61-9a02-7eef42a9ab24" />
      <TestMethod codeBase="E:/LiveProjects/SIMS.MM.DAL/SIMS.MM.Testing/bin/Debug/SIMS.MM.Testing.DLL" adapterTypeName="Microsoft.VisualStudio.TestTools.TestTypes.Unit.UnitTestAdapter, Microsoft.VisualStudio.QualityTools.Tips.UnitTest.Adapter, Version=10.0.0.0, Culture=neutral, PublicKeyToken=b03f5f7f11d50a3a" className="SIMS.MM.Testing.PurchasingTest, SIMS.MM.Testing, Version=1.0.0.0, Culture=neutral, PublicKeyToken=null" name="GetMReceivingforMoReceiving_Test" />
    </UnitTest>
    <UnitTest name="GETPR_BY_ID" storage="e:\liveprojects\sims.mm.dal\sims.mm.testing\bin\debug\sims.mm.testing.dll" id="34002fbb-5ba7-f3db-ce05-af92e9b0104c">
      <Execution id="d748192b-486d-481a-9d90-edf3de0ba8b1" />
      <TestMethod codeBase="E:/LiveProjects/SIMS.MM.DAL/SIMS.MM.Testing/bin/Debug/SIMS.MM.Testing.DLL" adapterTypeName="Microsoft.VisualStudio.TestTools.TestTypes.Unit.UnitTestAdapter, Microsoft.VisualStudio.QualityTools.Tips.UnitTest.Adapter, Version=10.0.0.0, Culture=neutral, PublicKeyToken=b03f5f7f11d50a3a" className="SIMS.MM.Testing.PurchasingTest, SIMS.MM.Testing, Version=1.0.0.0, Culture=neutral, PublicKeyToken=null" name="GETPR_BY_ID" />
    </UnitTest>
    <UnitTest name="GetGetPODetailsByLine_test" storage="e:\liveprojects\sims.mm.dal\sims.mm.testing\bin\debug\sims.mm.testing.dll" id="a7ce7c08-0193-6d87-3b51-68bcd6fd5094">
      <Execution id="4573a229-8b4b-4094-a7e1-e23e0a52b95e" />
      <TestMethod codeBase="E:/LiveProjects/SIMS.MM.DAL/SIMS.MM.Testing/bin/Debug/SIMS.MM.Testing.DLL" adapterTypeName="Microsoft.VisualStudio.TestTools.TestTypes.Unit.UnitTestAdapter, Microsoft.VisualStudio.QualityTools.Tips.UnitTest.Adapter, Version=10.0.0.0, Culture=neutral, PublicKeyToken=b03f5f7f11d50a3a" className="SIMS.MM.Testing.PurchasingTest, SIMS.MM.Testing, Version=1.0.0.0, Culture=neutral, PublicKeyToken=null" name="GetGetPODetailsByLine_test" />
    </UnitTest>
    <UnitTest name="CreateNewMRTest" storage="e:\liveprojects\sims.mm.dal\sims.mm.testing\bin\debug\sims.mm.testing.dll" id="414e750c-9a6c-1c69-45f5-ee2245290510">
      <Execution id="d9ba9780-b2bf-4f26-9080-0c5f95aa3dd9" />
      <TestMethod codeBase="E:/LiveProjects/SIMS.MM.DAL/SIMS.MM.Testing/bin/Debug/SIMS.MM.Testing.DLL" adapterTypeName="Microsoft.VisualStudio.TestTools.TestTypes.Unit.UnitTestAdapter, Microsoft.VisualStudio.QualityTools.Tips.UnitTest.Adapter, Version=10.0.0.0, Culture=neutral, PublicKeyToken=b03f5f7f11d50a3a" className="SIMS.MM.Testing.MRManagerTest, SIMS.MM.Testing, Version=1.0.0.0, Culture=neutral, PublicKeyToken=null" name="CreateNewMRTest" />
    </UnitTest>
    <UnitTest name="CreateMRIssueTest" storage="e:\liveprojects\sims.mm.dal\sims.mm.testing\bin\debug\sims.mm.testing.dll" id="fea950c0-39dd-23f6-121c-338e7b4f95e5">
      <Execution id="4672cc53-472c-4e8e-9a04-d75af1d30e87" />
      <TestMethod codeBase="E:/LiveProjects/SIMS.MM.DAL/SIMS.MM.Testing/bin/Debug/SIMS.MM.Testing.DLL" adapterTypeName="Microsoft.VisualStudio.TestTools.TestTypes.Unit.UnitTestAdapter, Microsoft.VisualStudio.QualityTools.Tips.UnitTest.Adapter, Version=10.0.0.0, Culture=neutral, PublicKeyToken=b03f5f7f11d50a3a" className="SIMS.MM.Testing.MRManagerTest, SIMS.MM.Testing, Version=1.0.0.0, Culture=neutral, PublicKeyToken=null" name="CreateMRIssueTest" />
    </UnitTest>
    <UnitTest name="GetAllPRiceMaster_test" storage="e:\liveprojects\sims.mm.dal\sims.mm.testing\bin\debug\sims.mm.testing.dll" id="0f69d0f3-245d-6aa0-c5ad-4048e034180e">
      <Execution id="efa8b6ba-16d1-4e4b-a136-37434a55d328" />
      <TestMethod codeBase="E:/LiveProjects/SIMS.MM.DAL/SIMS.MM.Testing/bin/Debug/SIMS.MM.Testing.DLL" adapterTypeName="Microsoft.VisualStudio.TestTools.TestTypes.Unit.UnitTestAdapter, Microsoft.VisualStudio.QualityTools.Tips.UnitTest.Adapter, Version=10.0.0.0, Culture=neutral, PublicKeyToken=b03f5f7f11d50a3a" className="SIMS.MM.Testing.PurchasingTest, SIMS.MM.Testing, Version=1.0.0.0, Culture=neutral, PublicKeyToken=null" name="GetAllPRiceMaster_test" />
    </UnitTest>
    <UnitTest name="GetCPReports_test" storage="e:\liveprojects\sims.mm.dal\sims.mm.testing\bin\debug\sims.mm.testing.dll" id="4405501e-b3f3-21ee-7ab3-b08f305db997">
      <Execution id="2dbaf265-f88a-4f59-b700-f31c4d0264c0" />
      <TestMethod codeBase="E:/LiveProjects/SIMS.MM.DAL/SIMS.MM.Testing/bin/Debug/SIMS.MM.Testing.DLL" adapterTypeName="Microsoft.VisualStudio.TestTools.TestTypes.Unit.UnitTestAdapter, Microsoft.VisualStudio.QualityTools.Tips.UnitTest.Adapter, Version=10.0.0.0, Culture=neutral, PublicKeyToken=b03f5f7f11d50a3a" className="SIMS.MM.Testing.PurchasingTest, SIMS.MM.Testing, Version=1.0.0.0, Culture=neutral, PublicKeyToken=null" name="GetCPReports_test" />
    </UnitTest>
    <UnitTest name="Receiving_MTR_From_Database" storage="e:\liveprojects\sims.mm.dal\sims.mm.testing\bin\debug\sims.mm.testing.dll" id="95a91c33-7d3a-3e0e-2f6a-d9891456ce13">
      <Execution id="e88a3599-5985-4032-8302-d032e386a750" />
      <TestMethod codeBase="E:/LiveProjects/SIMS.MM.DAL/SIMS.MM.Testing/bin/Debug/SIMS.MM.Testing.DLL" adapterTypeName="Microsoft.VisualStudio.TestTools.TestTypes.Unit.UnitTestAdapter, Microsoft.VisualStudio.QualityTools.Tips.UnitTest.Adapter, Version=10.0.0.0, Culture=neutral, PublicKeyToken=b03f5f7f11d50a3a" className="SIMS.MM.Testing.PurchasingTest, SIMS.MM.Testing, Version=1.0.0.0, Culture=neutral, PublicKeyToken=null" name="Receiving_MTR_From_Database" />
    </UnitTest>
    <UnitTest name="CreateNewMO_Test" storage="e:\liveprojects\sims.mm.dal\sims.mm.testing\bin\debug\sims.mm.testing.dll" id="196ceb70-14d5-d8b3-7aa8-1fe7c321492f">
      <Execution id="2792d990-ce95-47d6-83dc-c4462167296e" />
      <TestMethod codeBase="E:/LiveProjects/SIMS.MM.DAL/SIMS.MM.Testing/bin/Debug/SIMS.MM.Testing.DLL" adapterTypeName="Microsoft.VisualStudio.TestTools.TestTypes.Unit.UnitTestAdapter, Microsoft.VisualStudio.QualityTools.Tips.UnitTest.Adapter, Version=10.0.0.0, Culture=neutral, PublicKeyToken=b03f5f7f11d50a3a" className="SIMS.MM.Testing.PurchasingTest, SIMS.MM.Testing, Version=1.0.0.0, Culture=neutral, PublicKeyToken=null" name="CreateNewMO_Test" />
    </UnitTest>
  </TestDefinitions>
  <TestLists>
    <TestList name="Results Not in a List" id="8c84fa94-04c1-424b-9868-57a2d4851a1d" />
    <TestList name="All Loaded Results" id="19431567-8539-422a-85d7-44ee4e166bda" />
  </TestLists>
  <TestEntries>
    <TestEntry testId="b784e822-6321-63ff-be0b-adceb685f0d1" executionId="71698685-615e-4d86-95aa-a26a53562f15" testListId="8c84fa94-04c1-424b-9868-57a2d4851a1d" />
    <TestEntry testId="3ed40c53-97fd-afbd-61cb-1b485997dd1d" executionId="4b39df3c-e6e7-4468-a2d5-70e555aa8986" testListId="8c84fa94-04c1-424b-9868-57a2d4851a1d" />
    <TestEntry testId="29b45fdb-97da-f933-f402-6c63f27f28ea" executionId="49101edf-96d6-41d5-b165-646d7bbb93a8" testListId="8c84fa94-04c1-424b-9868-57a2d4851a1d" />
    <TestEntry testId="33cafe69-70df-ea1e-8149-22c3b1f6cb28" executionId="0c97cbf0-11ae-401b-9a27-25a027512fc4" testListId="8c84fa94-04c1-424b-9868-57a2d4851a1d" />
    <TestEntry testId="a14b7c93-5115-bb50-e840-54d1053f0c5a" executionId="cf50b095-dd8d-415c-a069-052a6ab5d675" testListId="8c84fa94-04c1-424b-9868-57a2d4851a1d" />
    <TestEntry testId="055433d4-ba65-195c-511b-8e21e5de09b4" executionId="c5b9b88b-1fd3-400b-b625-2497922849bd" testListId="8c84fa94-04c1-424b-9868-57a2d4851a1d" />
    <TestEntry testId="e7f72be7-d5e6-5cc1-3e6e-6b407a81a072" executionId="1803fd34-b1a2-4f04-b355-ce145ad4f725" testListId="8c84fa94-04c1-424b-9868-57a2d4851a1d" />
    <TestEntry testId="3d66b883-9c4b-642d-5b4f-9f43602caca6" executionId="b89151e8-e343-4656-98af-3520ddcf463a" testListId="8c84fa94-04c1-424b-9868-57a2d4851a1d" />
    <TestEntry testId="95a91c33-7d3a-3e0e-2f6a-d9891456ce13" executionId="e88a3599-5985-4032-8302-d032e386a750" testListId="8c84fa94-04c1-424b-9868-57a2d4851a1d" />
    <TestEntry testId="23e43b5b-fa22-39ca-881e-c727c563ef1d" executionId="8263d093-02f2-4658-810c-8048b36e9b93" testListId="8c84fa94-04c1-424b-9868-57a2d4851a1d" />
    <TestEntry testId="8ddfe342-66d1-f332-0524-c99a190b3590" executionId="bcc514dc-1479-4e35-b45e-d4276500f52d" testListId="8c84fa94-04c1-424b-9868-57a2d4851a1d" />
    <TestEntry testId="d8caa417-c345-46ba-c5c1-98154f87be91" executionId="accc64a5-e064-4b6d-bbb9-47fb420e5b10" testListId="8c84fa94-04c1-424b-9868-57a2d4851a1d" />
    <TestEntry testId="b66965c6-720e-188d-e1c4-636f97748f1b" executionId="0140adb3-ad83-4b9f-9418-b03f8340d28a" testListId="8c84fa94-04c1-424b-9868-57a2d4851a1d" />
    <TestEntry testId="0f21d640-9d65-aeca-1fb5-fd230140b14a" executionId="14b220b7-7dc6-4f19-b9f2-9badcb79f492" testListId="8c84fa94-04c1-424b-9868-57a2d4851a1d" />
    <TestEntry testId="4b669768-3474-12e8-4b2b-dc085b26333d" executionId="b0710134-8b8d-4d95-8309-49d00b801d4a" testListId="8c84fa94-04c1-424b-9868-57a2d4851a1d" />
    <TestEntry testId="59b4f148-6ae0-da8a-4d28-496ec231c0d9" executionId="cc013572-e013-48e0-b67f-abdc9571eac1" testListId="8c84fa94-04c1-424b-9868-57a2d4851a1d" />
    <TestEntry testId="1acd81dd-fe44-9707-229e-5e25a064b827" executionId="00c32e26-6b91-4406-a63f-db3f3c344b3e" testListId="8c84fa94-04c1-424b-9868-57a2d4851a1d" />
    <TestEntry testId="0dc5820f-0ec2-cbec-5744-2e35fc2a5f6a" executionId="358cf019-f3e2-426a-8766-2d67d47ccb9d" testListId="8c84fa94-04c1-424b-9868-57a2d4851a1d" />
    <TestEntry testId="0d746ed3-ec52-59b8-ca9e-f91ecf5cb9ec" executionId="a4317903-6f8b-4e1c-ab15-0400992f310a" testListId="8c84fa94-04c1-424b-9868-57a2d4851a1d" />
    <TestEntry testId="d9017a87-3bad-342d-9d8a-7a22a6e82a65" executionId="403005be-05e3-4a1f-a54b-d086411c381a" testListId="8c84fa94-04c1-424b-9868-57a2d4851a1d" />
    <TestEntry testId="cb429da4-88b6-06ca-638a-b93ccd0df65c" executionId="3225cfbc-bea8-47c8-883b-941a8e5c0a4b" testListId="8c84fa94-04c1-424b-9868-57a2d4851a1d" />
    <TestEntry testId="e8abeb5c-f6eb-c017-08f7-de5f195efaf8" executionId="f1f08082-530f-47b9-81f5-fa400ac9ea98" testListId="8c84fa94-04c1-424b-9868-57a2d4851a1d" />
    <TestEntry testId="5b03fc8c-8191-d8e7-41bc-d578a47fd4c6" executionId="a09b48cd-7fe0-4d9e-9765-92cb49a3da7f" testListId="8c84fa94-04c1-424b-9868-57a2d4851a1d" />
    <TestEntry testId="d75a6892-3834-bc1b-623f-6626dd742878" executionId="2deb7a4e-5b01-4a4b-bde4-ffce31b58324" testListId="8c84fa94-04c1-424b-9868-57a2d4851a1d" />
    <TestEntry testId="f8b6e152-9cd9-4517-78c7-8192a48ee92d" executionId="b85aca5c-46d1-4203-bc41-a196c97f6cc2" testListId="8c84fa94-04c1-424b-9868-57a2d4851a1d" />
    <TestEntry testId="e6ff57f6-944b-23b0-09d0-6af58901e218" executionId="d251a471-2357-4891-abe6-323ed645dd17" testListId="8c84fa94-04c1-424b-9868-57a2d4851a1d" />
    <TestEntry testId="a89e6e5c-f903-4df6-a82c-3d1f05887f89" executionId="594fb478-991f-4372-a9c5-399ccbb120e1" testListId="8c84fa94-04c1-424b-9868-57a2d4851a1d" />
    <TestEntry testId="dbb2e6c1-6f4d-407b-d1ab-4f3fb1e644a8" executionId="15f7a0bf-c1e2-4344-9802-735416ceb86b" testListId="8c84fa94-04c1-424b-9868-57a2d4851a1d" />
    <TestEntry testId="9f976234-e62f-b9f8-1b9a-a5735745c60c" executionId="e5a7c59a-b286-4957-a522-3788c33e8441" testListId="8c84fa94-04c1-424b-9868-57a2d4851a1d" />
    <TestEntry testId="34002fbb-5ba7-f3db-ce05-af92e9b0104c" executionId="d748192b-486d-481a-9d90-edf3de0ba8b1" testListId="8c84fa94-04c1-424b-9868-57a2d4851a1d" />
    <TestEntry testId="979c046b-b590-0239-6932-b88b32327593" executionId="920fcbc3-90bc-44db-beb0-c2def80797d4" testListId="8c84fa94-04c1-424b-9868-57a2d4851a1d" />
    <TestEntry testId="1ca5e715-f788-6e44-96ac-d3499e024638" executionId="bb50f6a1-b1ee-4c5f-87a3-2848df7b4d3c" testListId="8c84fa94-04c1-424b-9868-57a2d4851a1d" />
    <TestEntry testId="e0cfbda0-af3f-2c3d-767c-8e28ece5528f" executionId="e9073908-8103-48d5-89a5-971e938a91f0" testListId="8c84fa94-04c1-424b-9868-57a2d4851a1d" />
    <TestEntry testId="4405501e-b3f3-21ee-7ab3-b08f305db997" executionId="2dbaf265-f88a-4f59-b700-f31c4d0264c0" testListId="8c84fa94-04c1-424b-9868-57a2d4851a1d" />
    <TestEntry testId="a7ce7c08-0193-6d87-3b51-68bcd6fd5094" executionId="4573a229-8b4b-4094-a7e1-e23e0a52b95e" testListId="8c84fa94-04c1-424b-9868-57a2d4851a1d" />
    <TestEntry testId="abcdad69-54ac-6e8a-f8d7-eed774676927" executionId="8ce661f5-e50e-4eaa-85c2-2b916ec5b018" testListId="8c84fa94-04c1-424b-9868-57a2d4851a1d" />
    <TestEntry testId="2a3c1c30-7150-8342-6f12-9cebe0936764" executionId="d6412585-bbc3-4922-97d2-959b89dbf395" testListId="8c84fa94-04c1-424b-9868-57a2d4851a1d" />
    <TestEntry testId="810952d6-dd4a-ba87-e72a-9b489cd6a80c" executionId="6d74e118-26e8-4c8d-ad67-cf8e44195aaa" testListId="8c84fa94-04c1-424b-9868-57a2d4851a1d" />
    <TestEntry testId="b357036b-5418-48d6-0d06-a0b0db5c99f5" executionId="8600bd3e-4f70-41d2-8509-f4a546b71472" testListId="8c84fa94-04c1-424b-9868-57a2d4851a1d" />
    <TestEntry testId="8862a3a7-3332-565b-3ef7-ee2b49abc1d0" executionId="2b876506-70a6-4061-a498-026fd9ddbf91" testListId="8c84fa94-04c1-424b-9868-57a2d4851a1d" />
    <TestEntry testId="b256cb18-9004-1e5f-373b-d9fbf2688b91" executionId="d8b30058-8cf2-44ad-87df-50aab82e960d" testListId="8c84fa94-04c1-424b-9868-57a2d4851a1d" />
    <TestEntry testId="6c0e9b3d-e0df-e293-cfa1-514538733d05" executionId="2b99f2a5-4a9f-4bee-b9eb-86c2f59c6716" testListId="8c84fa94-04c1-424b-9868-57a2d4851a1d" />
    <TestEntry testId="3a45e946-47a6-5c0e-9929-3a6524363dee" executionId="6820db0d-972a-4fba-90d0-702e4e464a34" testListId="8c84fa94-04c1-424b-9868-57a2d4851a1d" />
    <TestEntry testId="86649f98-a16b-00d0-3552-445a5ea8ba07" executionId="a1ec7630-af13-4010-a773-a25c820597a5" testListId="8c84fa94-04c1-424b-9868-57a2d4851a1d" />
    <TestEntry testId="8f27c425-d355-1212-9adc-69a7ea9dd402" executionId="94b4802a-728d-4544-b613-f096d200f687" testListId="8c84fa94-04c1-424b-9868-57a2d4851a1d" />
    <TestEntry testId="67bb80a5-b8d8-5ab7-3eca-810888531470" executionId="ef87b36b-7659-4437-9d11-7b83129d53ae" testListId="8c84fa94-04c1-424b-9868-57a2d4851a1d" />
    <TestEntry testId="430653e7-abd8-0e9a-eb20-76de44cd27ca" executionId="88a0716d-fa58-427e-b562-67b1cf2b4318" testListId="8c84fa94-04c1-424b-9868-57a2d4851a1d" />
    <TestEntry testId="e6df67a5-e24d-2094-6c9f-406d51bfcfdf" executionId="46931ed2-82dd-488b-b86d-e297940fed90" testListId="8c84fa94-04c1-424b-9868-57a2d4851a1d" />
    <TestEntry testId="550f4330-d040-45ef-08e2-7bc978e37ede" executionId="bc5b8644-76c4-47be-b091-0a4e9919f3bd" testListId="8c84fa94-04c1-424b-9868-57a2d4851a1d" />
    <TestEntry testId="73387a6a-55cb-8bf2-363a-d240a9374cd3" executionId="7eab33b4-240e-40ff-986e-88415021894c" testListId="8c84fa94-04c1-424b-9868-57a2d4851a1d" />
    <TestEntry testId="196ceb70-14d5-d8b3-7aa8-1fe7c321492f" executionId="2792d990-ce95-47d6-83dc-c4462167296e" testListId="8c84fa94-04c1-424b-9868-57a2d4851a1d" />
    <TestEntry testId="e08bd988-f96e-2a93-f4d1-2b29b8093ced" executionId="55a60588-e431-4d97-87e5-0129a2721082" testListId="8c84fa94-04c1-424b-9868-57a2d4851a1d" />
    <TestEntry testId="5cc33ed9-7bb6-33b8-cad4-2aea1ea4c2d2" executionId="79e86ec2-5d9d-4d61-9a02-7eef42a9ab24" testListId="8c84fa94-04c1-424b-9868-57a2d4851a1d" />
    <TestEntry testId="93e5dda6-aed5-6213-c45c-368e0e5ca1fb" executionId="2df1d7eb-7091-41d5-a65b-927cb7dce7db" testListId="8c84fa94-04c1-424b-9868-57a2d4851a1d" />
    <TestEntry testId="4d0dd6f5-e220-a941-769f-8a3c629751cf" executionId="4f2a9db6-55bb-4e95-830a-c7a91a57aa5d" testListId="8c84fa94-04c1-424b-9868-57a2d4851a1d" />
    <TestEntry testId="41850c5d-3d59-0895-e8c5-e99ac8df5129" executionId="2eb3bf2f-5c66-42f3-ae2f-6c924b4ae758" testListId="8c84fa94-04c1-424b-9868-57a2d4851a1d" />
    <TestEntry testId="8f0151ec-d440-6d92-9028-099c0f2654c6" executionId="c05580e4-ba02-411c-92fd-c5427730fcc8" testListId="8c84fa94-04c1-424b-9868-57a2d4851a1d" />
    <TestEntry testId="71b8d983-3c01-2df0-3909-8505f9b33ddd" executionId="127b6367-b6a2-4149-a53f-6833b3d388e6" testListId="8c84fa94-04c1-424b-9868-57a2d4851a1d" />
    <TestEntry testId="dea93cd6-fff5-8aea-162a-a899db32f08d" executionId="335ec027-a03e-491a-9ed0-7beed2eb0234" testListId="8c84fa94-04c1-424b-9868-57a2d4851a1d" />
    <TestEntry testId="0f69d0f3-245d-6aa0-c5ad-4048e034180e" executionId="efa8b6ba-16d1-4e4b-a136-37434a55d328" testListId="8c84fa94-04c1-424b-9868-57a2d4851a1d" />
    <TestEntry testId="db97c3c7-17ff-da0a-0c75-0a7caa911b03" executionId="4fce78e7-c320-425a-bfe0-6e7c8d0b25ad" testListId="8c84fa94-04c1-424b-9868-57a2d4851a1d" />
    <TestEntry testId="414e750c-9a6c-1c69-45f5-ee2245290510" executionId="d9ba9780-b2bf-4f26-9080-0c5f95aa3dd9" testListId="8c84fa94-04c1-424b-9868-57a2d4851a1d" />
    <TestEntry testId="fea950c0-39dd-23f6-121c-338e7b4f95e5" executionId="4672cc53-472c-4e8e-9a04-d75af1d30e87" testListId="8c84fa94-04c1-424b-9868-57a2d4851a1d" />
    <TestEntry testId="c6b376e0-417f-7f41-ec14-5920a23b9ea9" executionId="e9695bfc-63f5-4b88-b8fc-fee58a83328e" testListId="8c84fa94-04c1-424b-9868-57a2d4851a1d" />
    <TestEntry testId="c2d35fc8-9e6e-9781-19df-627e43c3824b" executionId="8d787c03-ffaa-4dc2-8493-3625bcd55288" testListId="8c84fa94-04c1-424b-9868-57a2d4851a1d" />
    <TestEntry testId="8082b35f-5cf4-4665-d6b3-daac84164ce7" executionId="eeafa3fd-04fb-4e0d-980a-064d5bde38c7" testListId="8c84fa94-04c1-424b-9868-57a2d4851a1d" />
    <TestEntry testId="a4390120-f936-dbc8-a62f-28926c425890" executionId="bbb8f243-0029-41f8-a85d-c532257c534c" testListId="8c84fa94-04c1-424b-9868-57a2d4851a1d" />
    <TestEntry testId="74becb99-b2e8-1365-5613-00f1dbb3126d" executionId="282ce506-2f1a-4402-9140-a8dcc2730413" testListId="8c84fa94-04c1-424b-9868-57a2d4851a1d" />
    <TestEntry testId="29e354b4-9397-2d87-db7d-12691485a613" executionId="c136b8a3-adfa-4068-b86c-d3937fe964e8" testListId="8c84fa94-04c1-424b-9868-57a2d4851a1d" />
    <TestEntry testId="aeaacb2a-0169-1b30-fd4b-a208dd732c05" executionId="f72318c3-3436-461e-85a0-bb0295a4b39a" testListId="8c84fa94-04c1-424b-9868-57a2d4851a1d" />
    <TestEntry isTransparent="false" testId="35d94504-203f-4a16-a67b-7687ffbf9d7c" executionId="c1795922-5aaf-41e1-a267-21e33cb4a418" testListId="8c84fa94-04c1-424b-9868-57a2d4851a1d" />
  </TestEntries>
  <Results>
    <UnitTestResult executionId="71698685-615e-4d86-95aa-a26a53562f15" testId="b784e822-6321-63ff-be0b-adceb685f0d1" testName="ReportProviderConstructorTest" computerName="SERVER" testType="13cdc9d9-ddb5-4fa4-a97d-d965ccfc6d4b" outcome="NotExecuted" testListId="8c84fa94-04c1-424b-9868-57a2d4851a1d" relativeResultsDirectory="71698685-615e-4d86-95aa-a26a53562f15">
    </UnitTestResult>
    <UnitTestResult executionId="4b39df3c-e6e7-4468-a2d5-70e555aa8986" testId="3ed40c53-97fd-afbd-61cb-1b485997dd1d" testName="GetPODetailsByLineTest" computerName="SERVER" testType="13cdc9d9-ddb5-4fa4-a97d-d965ccfc6d4b" outcome="NotExecuted" testListId="8c84fa94-04c1-424b-9868-57a2d4851a1d" relativeResultsDirectory="4b39df3c-e6e7-4468-a2d5-70e555aa8986">
    </UnitTestResult>
    <UnitTestResult executionId="49101edf-96d6-41d5-b165-646d7bbb93a8" testId="29b45fdb-97da-f933-f402-6c63f27f28ea" testName="TotalReceiveByDatesTest" computerName="SERVER" testType="13cdc9d9-ddb5-4fa4-a97d-d965ccfc6d4b" outcome="NotExecuted" testListId="8c84fa94-04c1-424b-9868-57a2d4851a1d" relativeResultsDirectory="49101edf-96d6-41d5-b165-646d7bbb93a8">
    </UnitTestResult>
    <UnitTestResult executionId="0c97cbf0-11ae-401b-9a27-25a027512fc4" testId="33cafe69-70df-ea1e-8149-22c3b1f6cb28" testName="TotalReceiveBySiteAndDatesTest" computerName="SERVER" testType="13cdc9d9-ddb5-4fa4-a97d-d965ccfc6d4b" outcome="NotExecuted" testListId="8c84fa94-04c1-424b-9868-57a2d4851a1d" relativeResultsDirectory="0c97cbf0-11ae-401b-9a27-25a027512fc4">
    </UnitTestResult>
    <UnitTestResult executionId="cf50b095-dd8d-415c-a069-052a6ab5d675" testId="a14b7c93-5115-bb50-e840-54d1053f0c5a" testName="Receiving_CashPurchase_From_Database" computerName="SERVER" testType="13cdc9d9-ddb5-4fa4-a97d-d965ccfc6d4b" outcome="NotExecuted" testListId="8c84fa94-04c1-424b-9868-57a2d4851a1d" relativeResultsDirectory="cf50b095-dd8d-415c-a069-052a6ab5d675">
    </UnitTestResult>
    <UnitTestResult executionId="c5b9b88b-1fd3-400b-b625-2497922849bd" testId="055433d4-ba65-195c-511b-8e21e5de09b4" testName="Receiving_DirectPurchase_From_Database" computerName="SERVER" testType="13cdc9d9-ddb5-4fa4-a97d-d965ccfc6d4b" outcome="NotExecuted" testListId="8c84fa94-04c1-424b-9868-57a2d4851a1d" relativeResultsDirectory="c5b9b88b-1fd3-400b-b625-2497922849bd">
    </UnitTestResult>
    <UnitTestResult executionId="1803fd34-b1a2-4f04-b355-ce145ad4f725" testId="e7f72be7-d5e6-5cc1-3e6e-6b407a81a072" testName="Receiving_Consumption_From_Database" computerName="SERVER" testType="13cdc9d9-ddb5-4fa4-a97d-d965ccfc6d4b" outcome="NotExecuted" testListId="8c84fa94-04c1-424b-9868-57a2d4851a1d" relativeResultsDirectory="1803fd34-b1a2-4f04-b355-ce145ad4f725">
    </UnitTestResult>
    <UnitTestResult executionId="b89151e8-e343-4656-98af-3520ddcf463a" testId="3d66b883-9c4b-642d-5b4f-9f43602caca6" testName="receiving_grn_from_database" computerName="SERVER" testType="13cdc9d9-ddb5-4fa4-a97d-d965ccfc6d4b" outcome="NotExecuted" testListId="8c84fa94-04c1-424b-9868-57a2d4851a1d" relativeResultsDirectory="b89151e8-e343-4656-98af-3520ddcf463a">
    </UnitTestResult>
    <UnitTestResult executionId="e88a3599-5985-4032-8302-d032e386a750" testId="95a91c33-7d3a-3e0e-2f6a-d9891456ce13" testName="Receiving_MTR_From_Database" computerName="SERVER" testType="13cdc9d9-ddb5-4fa4-a97d-d965ccfc6d4b" outcome="NotExecuted" testListId="8c84fa94-04c1-424b-9868-57a2d4851a1d" relativeResultsDirectory="e88a3599-5985-4032-8302-d032e386a750">
    </UnitTestResult>
    <UnitTestResult executionId="8263d093-02f2-4658-810c-8048b36e9b93" testId="23e43b5b-fa22-39ca-881e-c727c563ef1d" testName="Receiving_PRs_From_Database" computerName="SERVER" testType="13cdc9d9-ddb5-4fa4-a97d-d965ccfc6d4b" outcome="NotExecuted" testListId="8c84fa94-04c1-424b-9868-57a2d4851a1d" relativeResultsDirectory="8263d093-02f2-4658-810c-8048b36e9b93">
    </UnitTestResult>
    <UnitTestResult executionId="bcc514dc-1479-4e35-b45e-d4276500f52d" testId="8ddfe342-66d1-f332-0524-c99a190b3590" testName="Receiving_MOs_From_Database" computerName="SERVER" testType="13cdc9d9-ddb5-4fa4-a97d-d965ccfc6d4b" outcome="NotExecuted" testListId="8c84fa94-04c1-424b-9868-57a2d4851a1d" relativeResultsDirectory="bcc514dc-1479-4e35-b45e-d4276500f52d">
    </UnitTestResult>
    <UnitTestResult executionId="accc64a5-e064-4b6d-bbb9-47fb420e5b10" testId="d8caa417-c345-46ba-c5c1-98154f87be91" testName="Receiving_POs_From_Database" computerName="SERVER" testType="13cdc9d9-ddb5-4fa4-a97d-d965ccfc6d4b" outcome="NotExecuted" testListId="8c84fa94-04c1-424b-9868-57a2d4851a1d" relativeResultsDirectory="accc64a5-e064-4b6d-bbb9-47fb420e5b10">
    </UnitTestResult>
    <UnitTestResult executionId="0140adb3-ad83-4b9f-9418-b03f8340d28a" testId="b66965c6-720e-188d-e1c4-636f97748f1b" testName="Receiving_BUs_From_Database" computerName="SERVER" testType="13cdc9d9-ddb5-4fa4-a97d-d965ccfc6d4b" outcome="NotExecuted" testListId="8c84fa94-04c1-424b-9868-57a2d4851a1d" relativeResultsDirectory="0140adb3-ad83-4b9f-9418-b03f8340d28a">
    </UnitTestResult>
    <UnitTestResult executionId="14b220b7-7dc6-4f19-b9f2-9badcb79f492" testId="0f21d640-9d65-aeca-1fb5-fd230140b14a" testName="Receiving_Vendors_From_Database" computerName="SERVER" testType="13cdc9d9-ddb5-4fa4-a97d-d965ccfc6d4b" outcome="NotExecuted" testListId="8c84fa94-04c1-424b-9868-57a2d4851a1d" relativeResultsDirectory="14b220b7-7dc6-4f19-b9f2-9badcb79f492">
    </UnitTestResult>
    <UnitTestResult executionId="b0710134-8b8d-4d95-8309-49d00b801d4a" testId="4b669768-3474-12e8-4b2b-dc085b26333d" testName="Receiving_Items_From_Database" computerName="SERVER" testType="13cdc9d9-ddb5-4fa4-a97d-d965ccfc6d4b" outcome="NotExecuted" testListId="8c84fa94-04c1-424b-9868-57a2d4851a1d" relativeResultsDirectory="b0710134-8b8d-4d95-8309-49d00b801d4a">
    </UnitTestResult>
    <UnitTestResult executionId="cc013572-e013-48e0-b67f-abdc9571eac1" testId="59b4f148-6ae0-da8a-4d28-496ec231c0d9" testName="CreatingNewPRTest" computerName="SERVER" testType="13cdc9d9-ddb5-4fa4-a97d-d965ccfc6d4b" outcome="NotExecuted" testListId="8c84fa94-04c1-424b-9868-57a2d4851a1d" relativeResultsDirectory="cc013572-e013-48e0-b67f-abdc9571eac1">
    </UnitTestResult>
    <UnitTestResult executionId="00c32e26-6b91-4406-a63f-db3f3c344b3e" testId="1acd81dd-fe44-9707-229e-5e25a064b827" testName="DeletePR_test" computerName="SERVER" testType="13cdc9d9-ddb5-4fa4-a97d-d965ccfc6d4b" outcome="NotExecuted" testListId="8c84fa94-04c1-424b-9868-57a2d4851a1d" relativeResultsDirectory="00c32e26-6b91-4406-a63f-db3f3c344b3e">
    </UnitTestResult>
    <UnitTestResult executionId="358cf019-f3e2-426a-8766-2d67d47ccb9d" testId="0dc5820f-0ec2-cbec-5744-2e35fc2a5f6a" testName="CreateNewReceivingTest" computerName="SERVER" testType="13cdc9d9-ddb5-4fa4-a97d-d965ccfc6d4b" outcome="NotExecuted" testListId="8c84fa94-04c1-424b-9868-57a2d4851a1d" relativeResultsDirectory="358cf019-f3e2-426a-8766-2d67d47ccb9d">
    </UnitTestResult>
    <UnitTestResult executionId="a4317903-6f8b-4e1c-ab15-0400992f310a" testId="0d746ed3-ec52-59b8-ca9e-f91ecf5cb9ec" testName="CreateNewCashPurchaseTest" computerName="SERVER" testType="13cdc9d9-ddb5-4fa4-a97d-d965ccfc6d4b" outcome="NotExecuted" testListId="8c84fa94-04c1-424b-9868-57a2d4851a1d" relativeResultsDirectory="a4317903-6f8b-4e1c-ab15-0400992f310a">
    </UnitTestResult>
    <UnitTestResult executionId="403005be-05e3-4a1f-a54b-d086411c381a" testId="d9017a87-3bad-342d-9d8a-7a22a6e82a65" testName="CreateNewDirectPurchaseTest" computerName="SERVER" testType="13cdc9d9-ddb5-4fa4-a97d-d965ccfc6d4b" outcome="NotExecuted" testListId="8c84fa94-04c1-424b-9868-57a2d4851a1d" relativeResultsDirectory="403005be-05e3-4a1f-a54b-d086411c381a">
    </UnitTestResult>
    <UnitTestResult executionId="3225cfbc-bea8-47c8-883b-941a8e5c0a4b" testId="cb429da4-88b6-06ca-638a-b93ccd0df65c" testName="CreateNewConsumptionTest" computerName="SERVER" testType="13cdc9d9-ddb5-4fa4-a97d-d965ccfc6d4b" outcome="NotExecuted" testListId="8c84fa94-04c1-424b-9868-57a2d4851a1d" relativeResultsDirectory="3225cfbc-bea8-47c8-883b-941a8e5c0a4b">
    </UnitTestResult>
    <UnitTestResult executionId="f1f08082-530f-47b9-81f5-fa400ac9ea98" testId="e8abeb5c-f6eb-c017-08f7-de5f195efaf8" testName="CreateNewVendorTest" computerName="SERVER" testType="13cdc9d9-ddb5-4fa4-a97d-d965ccfc6d4b" outcome="NotExecuted" testListId="8c84fa94-04c1-424b-9868-57a2d4851a1d" relativeResultsDirectory="f1f08082-530f-47b9-81f5-fa400ac9ea98">
    </UnitTestResult>
    <UnitTestResult executionId="a09b48cd-7fe0-4d9e-9765-92cb49a3da7f" testId="5b03fc8c-8191-d8e7-41bc-d578a47fd4c6" testName="UpdatingVendorTest" computerName="SERVER" testType="13cdc9d9-ddb5-4fa4-a97d-d965ccfc6d4b" outcome="NotExecuted" testListId="8c84fa94-04c1-424b-9868-57a2d4851a1d" relativeResultsDirectory="a09b48cd-7fe0-4d9e-9765-92cb49a3da7f">
    </UnitTestResult>
    <UnitTestResult executionId="2deb7a4e-5b01-4a4b-bde4-ffce31b58324" testId="d75a6892-3834-bc1b-623f-6626dd742878" testName="UpdatingTransporterTest" computerName="SERVER" testType="13cdc9d9-ddb5-4fa4-a97d-d965ccfc6d4b" outcome="NotExecuted" testListId="8c84fa94-04c1-424b-9868-57a2d4851a1d" relativeResultsDirectory="2deb7a4e-5b01-4a4b-bde4-ffce31b58324">
    </UnitTestResult>
    <UnitTestResult executionId="b85aca5c-46d1-4203-bc41-a196c97f6cc2" testId="f8b6e152-9cd9-4517-78c7-8192a48ee92d" testName="CreateSiteTest" computerName="SERVER" testType="13cdc9d9-ddb5-4fa4-a97d-d965ccfc6d4b" outcome="NotExecuted" testListId="8c84fa94-04c1-424b-9868-57a2d4851a1d" relativeResultsDirectory="b85aca5c-46d1-4203-bc41-a196c97f6cc2">
    </UnitTestResult>
    <UnitTestResult executionId="d251a471-2357-4891-abe6-323ed645dd17" testId="e6ff57f6-944b-23b0-09d0-6af58901e218" testName="UpdatingSiteTest" computerName="SERVER" testType="13cdc9d9-ddb5-4fa4-a97d-d965ccfc6d4b" outcome="NotExecuted" testListId="8c84fa94-04c1-424b-9868-57a2d4851a1d" relativeResultsDirectory="d251a471-2357-4891-abe6-323ed645dd17">
    </UnitTestResult>
    <UnitTestResult executionId="594fb478-991f-4372-a9c5-399ccbb120e1" testId="a89e6e5c-f903-4df6-a82c-3d1f05887f89" testName="UpdatingPRTest" computerName="SERVER" testType="13cdc9d9-ddb5-4fa4-a97d-d965ccfc6d4b" outcome="NotExecuted" testListId="8c84fa94-04c1-424b-9868-57a2d4851a1d" relativeResultsDirectory="594fb478-991f-4372-a9c5-399ccbb120e1">
    </UnitTestResult>
    <UnitTestResult executionId="15f7a0bf-c1e2-4344-9802-735416ceb86b" testId="dbb2e6c1-6f4d-407b-d1ab-4f3fb1e644a8" testName="CreateNewItemTest" computerName="SERVER" testType="13cdc9d9-ddb5-4fa4-a97d-d965ccfc6d4b" outcome="NotExecuted" testListId="8c84fa94-04c1-424b-9868-57a2d4851a1d" relativeResultsDirectory="15f7a0bf-c1e2-4344-9802-735416ceb86b">
    </UnitTestResult>
    <UnitTestResult executionId="e5a7c59a-b286-4957-a522-3788c33e8441" testId="9f976234-e62f-b9f8-1b9a-a5735745c60c" testName="CreateNewMTR_Test" computerName="SERVER" testType="13cdc9d9-ddb5-4fa4-a97d-d965ccfc6d4b" outcome="NotExecuted" testListId="8c84fa94-04c1-424b-9868-57a2d4851a1d" relativeResultsDirectory="e5a7c59a-b286-4957-a522-3788c33e8441">
    </UnitTestResult>
    <UnitTestResult executionId="d748192b-486d-481a-9d90-edf3de0ba8b1" testId="34002fbb-5ba7-f3db-ce05-af92e9b0104c" testName="GETPR_BY_ID" computerName="SERVER" testType="13cdc9d9-ddb5-4fa4-a97d-d965ccfc6d4b" outcome="NotExecuted" testListId="8c84fa94-04c1-424b-9868-57a2d4851a1d" relativeResultsDirectory="d748192b-486d-481a-9d90-edf3de0ba8b1">
    </UnitTestResult>
    <UnitTestResult executionId="920fcbc3-90bc-44db-beb0-c2def80797d4" testId="979c046b-b590-0239-6932-b88b32327593" testName="ApprovePR_test" computerName="SERVER" testType="13cdc9d9-ddb5-4fa4-a97d-d965ccfc6d4b" outcome="NotExecuted" testListId="8c84fa94-04c1-424b-9868-57a2d4851a1d" relativeResultsDirectory="920fcbc3-90bc-44db-beb0-c2def80797d4">
    </UnitTestResult>
    <UnitTestResult executionId="bb50f6a1-b1ee-4c5f-87a3-2848df7b4d3c" testId="1ca5e715-f788-6e44-96ac-d3499e024638" testName="Convert_To_PO_test" computerName="SERVER" testType="13cdc9d9-ddb5-4fa4-a97d-d965ccfc6d4b" outcome="NotExecuted" testListId="8c84fa94-04c1-424b-9868-57a2d4851a1d" relativeResultsDirectory="bb50f6a1-b1ee-4c5f-87a3-2848df7b4d3c">
    </UnitTestResult>
    <UnitTestResult executionId="e9073908-8103-48d5-89a5-971e938a91f0" testId="e0cfbda0-af3f-2c3d-767c-8e28ece5528f" testName="Get_DPbyId_test" computerName="SERVER" testType="13cdc9d9-ddb5-4fa4-a97d-d965ccfc6d4b" outcome="NotExecuted" testListId="8c84fa94-04c1-424b-9868-57a2d4851a1d" relativeResultsDirectory="e9073908-8103-48d5-89a5-971e938a91f0">
    </UnitTestResult>
    <UnitTestResult executionId="2dbaf265-f88a-4f59-b700-f31c4d0264c0" testId="4405501e-b3f3-21ee-7ab3-b08f305db997" testName="GetCPReports_test" computerName="SERVER" testType="13cdc9d9-ddb5-4fa4-a97d-d965ccfc6d4b" outcome="NotExecuted" testListId="8c84fa94-04c1-424b-9868-57a2d4851a1d" relativeResultsDirectory="2dbaf265-f88a-4f59-b700-f31c4d0264c0">
    </UnitTestResult>
    <UnitTestResult executionId="4573a229-8b4b-4094-a7e1-e23e0a52b95e" testId="a7ce7c08-0193-6d87-3b51-68bcd6fd5094" testName="GetGetPODetailsByLine_test" computerName="SERVER" testType="13cdc9d9-ddb5-4fa4-a97d-d965ccfc6d4b" outcome="NotExecuted" testListId="8c84fa94-04c1-424b-9868-57a2d4851a1d" relativeResultsDirectory="4573a229-8b4b-4094-a7e1-e23e0a52b95e">
    </UnitTestResult>
    <UnitTestResult executionId="8ce661f5-e50e-4eaa-85c2-2b916ec5b018" testId="abcdad69-54ac-6e8a-f8d7-eed774676927" testName="GetDPReports_test" computerName="SERVER" testType="13cdc9d9-ddb5-4fa4-a97d-d965ccfc6d4b" outcome="NotExecuted" testListId="8c84fa94-04c1-424b-9868-57a2d4851a1d" relativeResultsDirectory="8ce661f5-e50e-4eaa-85c2-2b916ec5b018">
    </UnitTestResult>
    <UnitTestResult executionId="d6412585-bbc3-4922-97d2-959b89dbf395" testId="2a3c1c30-7150-8342-6f12-9cebe0936764" testName="GetStockReports_test" computerName="SERVER" testType="13cdc9d9-ddb5-4fa4-a97d-d965ccfc6d4b" outcome="NotExecuted" testListId="8c84fa94-04c1-424b-9868-57a2d4851a1d" relativeResultsDirectory="d6412585-bbc3-4922-97d2-959b89dbf395">
    </UnitTestResult>
    <UnitTestResult executionId="6d74e118-26e8-4c8d-ad67-cf8e44195aaa" testId="810952d6-dd4a-ba87-e72a-9b489cd6a80c" testName="GetGetGRNDetails_test" computerName="SERVER" testType="13cdc9d9-ddb5-4fa4-a97d-d965ccfc6d4b" outcome="NotExecuted" testListId="8c84fa94-04c1-424b-9868-57a2d4851a1d" relativeResultsDirectory="6d74e118-26e8-4c8d-ad67-cf8e44195aaa">
    </UnitTestResult>
    <UnitTestResult executionId="8600bd3e-4f70-41d2-8509-f4a546b71472" testId="b357036b-5418-48d6-0d06-a0b0db5c99f5" testName="GetDetailedStocReport_test" computerName="SERVER" testType="13cdc9d9-ddb5-4fa4-a97d-d965ccfc6d4b" outcome="NotExecuted" testListId="8c84fa94-04c1-424b-9868-57a2d4851a1d" relativeResultsDirectory="8600bd3e-4f70-41d2-8509-f4a546b71472">
    </UnitTestResult>
    <UnitTestResult executionId="2b876506-70a6-4061-a498-026fd9ddbf91" testId="8862a3a7-3332-565b-3ef7-ee2b49abc1d0" testName="GetConsumptionDetails_test" computerName="SERVER" testType="13cdc9d9-ddb5-4fa4-a97d-d965ccfc6d4b" outcome="NotExecuted" testListId="8c84fa94-04c1-424b-9868-57a2d4851a1d" relativeResultsDirectory="2b876506-70a6-4061-a498-026fd9ddbf91">
    </UnitTestResult>
    <UnitTestResult executionId="d8b30058-8cf2-44ad-87df-50aab82e960d" testId="b256cb18-9004-1e5f-373b-d9fbf2688b91" testName="GetAllowedItenId_test" computerName="SERVER" testType="13cdc9d9-ddb5-4fa4-a97d-d965ccfc6d4b" outcome="NotExecuted" testListId="8c84fa94-04c1-424b-9868-57a2d4851a1d" relativeResultsDirectory="d8b30058-8cf2-44ad-87df-50aab82e960d">
    </UnitTestResult>
    <UnitTestResult executionId="2b99f2a5-4a9f-4bee-b9eb-86c2f59c6716" testId="6c0e9b3d-e0df-e293-cfa1-514538733d05" testName="GetPendingInfo_test" computerName="SERVER" testType="13cdc9d9-ddb5-4fa4-a97d-d965ccfc6d4b" outcome="NotExecuted" testListId="8c84fa94-04c1-424b-9868-57a2d4851a1d" relativeResultsDirectory="2b99f2a5-4a9f-4bee-b9eb-86c2f59c6716">
    </UnitTestResult>
    <UnitTestResult executionId="6820db0d-972a-4fba-90d0-702e4e464a34" testId="3a45e946-47a6-5c0e-9929-3a6524363dee" testName="Email_test" computerName="SERVER" testType="13cdc9d9-ddb5-4fa4-a97d-d965ccfc6d4b" outcome="NotExecuted" testListId="8c84fa94-04c1-424b-9868-57a2d4851a1d" relativeResultsDirectory="6820db0d-972a-4fba-90d0-702e4e464a34">
    </UnitTestResult>
    <UnitTestResult executionId="a1ec7630-af13-4010-a773-a25c820597a5" testId="86649f98-a16b-00d0-3552-445a5ea8ba07" testName="EmailtoVendor_test" computerName="SERVER" testType="13cdc9d9-ddb5-4fa4-a97d-d965ccfc6d4b" outcome="NotExecuted" testListId="8c84fa94-04c1-424b-9868-57a2d4851a1d" relativeResultsDirectory="a1ec7630-af13-4010-a773-a25c820597a5">
    </UnitTestResult>
    <UnitTestResult executionId="94b4802a-728d-4544-b613-f096d200f687" testId="8f27c425-d355-1212-9adc-69a7ea9dd402" testName="GetItemName_test" computerName="SERVER" testType="13cdc9d9-ddb5-4fa4-a97d-d965ccfc6d4b" outcome="NotExecuted" testListId="8c84fa94-04c1-424b-9868-57a2d4851a1d" relativeResultsDirectory="94b4802a-728d-4544-b613-f096d200f687">
    </UnitTestResult>
    <UnitTestResult executionId="ef87b36b-7659-4437-9d11-7b83129d53ae" testId="67bb80a5-b8d8-5ab7-3eca-810888531470" testName="GetAllMUs_test" computerName="SERVER" testType="13cdc9d9-ddb5-4fa4-a97d-d965ccfc6d4b" outcome="NotExecuted" testListId="8c84fa94-04c1-424b-9868-57a2d4851a1d" relativeResultsDirectory="ef87b36b-7659-4437-9d11-7b83129d53ae">
    </UnitTestResult>
    <UnitTestResult executionId="88a0716d-fa58-427e-b562-67b1cf2b4318" testId="430653e7-abd8-0e9a-eb20-76de44cd27ca" testName="CreateNewMU_TEst" computerName="SERVER" testType="13cdc9d9-ddb5-4fa4-a97d-d965ccfc6d4b" outcome="NotExecuted" testListId="8c84fa94-04c1-424b-9868-57a2d4851a1d" relativeResultsDirectory="88a0716d-fa58-427e-b562-67b1cf2b4318">
    </UnitTestResult>
    <UnitTestResult executionId="46931ed2-82dd-488b-b86d-e297940fed90" testId="e6df67a5-e24d-2094-6c9f-406d51bfcfdf" testName="GetItemCategories_TEst" computerName="SERVER" testType="13cdc9d9-ddb5-4fa4-a97d-d965ccfc6d4b" outcome="NotExecuted" testListId="8c84fa94-04c1-424b-9868-57a2d4851a1d" relativeResultsDirectory="46931ed2-82dd-488b-b86d-e297940fed90">
    </UnitTestResult>
    <UnitTestResult executionId="bc5b8644-76c4-47be-b091-0a4e9919f3bd" testId="550f4330-d040-45ef-08e2-7bc978e37ede" testName="GetMOHeaders_test" computerName="SERVER" testType="13cdc9d9-ddb5-4fa4-a97d-d965ccfc6d4b" outcome="NotExecuted" testListId="8c84fa94-04c1-424b-9868-57a2d4851a1d" relativeResultsDirectory="bc5b8644-76c4-47be-b091-0a4e9919f3bd">
    </UnitTestResult>
    <UnitTestResult executionId="7eab33b4-240e-40ff-986e-88415021894c" testId="73387a6a-55cb-8bf2-363a-d240a9374cd3" testName="GetMOBy_Id_test" computerName="SERVER" testType="13cdc9d9-ddb5-4fa4-a97d-d965ccfc6d4b" outcome="NotExecuted" testListId="8c84fa94-04c1-424b-9868-57a2d4851a1d" relativeResultsDirectory="7eab33b4-240e-40ff-986e-88415021894c">
    </UnitTestResult>
    <UnitTestResult executionId="2792d990-ce95-47d6-83dc-c4462167296e" testId="196ceb70-14d5-d8b3-7aa8-1fe7c321492f" testName="CreateNewMO_Test" computerName="SERVER" testType="13cdc9d9-ddb5-4fa4-a97d-d965ccfc6d4b" outcome="NotExecuted" testListId="8c84fa94-04c1-424b-9868-57a2d4851a1d" relativeResultsDirectory="2792d990-ce95-47d6-83dc-c4462167296e">
    </UnitTestResult>
    <UnitTestResult executionId="55a60588-e431-4d97-87e5-0129a2721082" testId="e08bd988-f96e-2a93-f4d1-2b29b8093ced" testName="GetMReceivingforMoRelease_Test" computerName="SERVER" testType="13cdc9d9-ddb5-4fa4-a97d-d965ccfc6d4b" outcome="NotExecuted" testListId="8c84fa94-04c1-424b-9868-57a2d4851a1d" relativeResultsDirectory="55a60588-e431-4d97-87e5-0129a2721082">
    </UnitTestResult>
    <UnitTestResult executionId="79e86ec2-5d9d-4d61-9a02-7eef42a9ab24" testId="5cc33ed9-7bb6-33b8-cad4-2aea1ea4c2d2" testName="GetMReceivingforMoReceiving_Test" computerName="SERVER" testType="13cdc9d9-ddb5-4fa4-a97d-d965ccfc6d4b" outcome="NotExecuted" testListId="8c84fa94-04c1-424b-9868-57a2d4851a1d" relativeResultsDirectory="79e86ec2-5d9d-4d61-9a02-7eef42a9ab24">
    </UnitTestResult>
    <UnitTestResult executionId="2df1d7eb-7091-41d5-a65b-927cb7dce7db" testId="93e5dda6-aed5-6213-c45c-368e0e5ca1fb" testName="CreateMORelease_Test" computerName="SERVER" testType="13cdc9d9-ddb5-4fa4-a97d-d965ccfc6d4b" outcome="NotExecuted" testListId="8c84fa94-04c1-424b-9868-57a2d4851a1d" relativeResultsDirectory="2df1d7eb-7091-41d5-a65b-927cb7dce7db">
    </UnitTestResult>
    <UnitTestResult executionId="4f2a9db6-55bb-4e95-830a-c7a91a57aa5d" testId="4d0dd6f5-e220-a941-769f-8a3c629751cf" testName="CreateMOReceive_Test" computerName="SERVER" testType="13cdc9d9-ddb5-4fa4-a97d-d965ccfc6d4b" outcome="NotExecuted" testListId="8c84fa94-04c1-424b-9868-57a2d4851a1d" relativeResultsDirectory="4f2a9db6-55bb-4e95-830a-c7a91a57aa5d">
    </UnitTestResult>
    <UnitTestResult executionId="2eb3bf2f-5c66-42f3-ae2f-6c924b4ae758" testId="41850c5d-3d59-0895-e8c5-e99ac8df5129" testName="CloseMO_IFRequired_test" computerName="SERVER" testType="13cdc9d9-ddb5-4fa4-a97d-d965ccfc6d4b" outcome="NotExecuted" testListId="8c84fa94-04c1-424b-9868-57a2d4851a1d" relativeResultsDirectory="2eb3bf2f-5c66-42f3-ae2f-6c924b4ae758">
    </UnitTestResult>
    <UnitTestResult executionId="c05580e4-ba02-411c-92fd-c5427730fcc8" testId="8f0151ec-d440-6d92-9028-099c0f2654c6" testName="GetAllUsers_test" computerName="SERVER" testType="13cdc9d9-ddb5-4fa4-a97d-d965ccfc6d4b" outcome="NotExecuted" testListId="8c84fa94-04c1-424b-9868-57a2d4851a1d" relativeResultsDirectory="c05580e4-ba02-411c-92fd-c5427730fcc8">
    </UnitTestResult>
    <UnitTestResult executionId="127b6367-b6a2-4149-a53f-6833b3d388e6" testId="71b8d983-3c01-2df0-3909-8505f9b33ddd" testName="GetAllTransporters_test" computerName="SERVER" testType="13cdc9d9-ddb5-4fa4-a97d-d965ccfc6d4b" outcome="NotExecuted" testListId="8c84fa94-04c1-424b-9868-57a2d4851a1d" relativeResultsDirectory="127b6367-b6a2-4149-a53f-6833b3d388e6">
    </UnitTestResult>
    <UnitTestResult executionId="335ec027-a03e-491a-9ed0-7beed2eb0234" testId="dea93cd6-fff5-8aea-162a-a899db32f08d" testName="GetAllowedItemId_test" computerName="SERVER" testType="13cdc9d9-ddb5-4fa4-a97d-d965ccfc6d4b" outcome="NotExecuted" testListId="8c84fa94-04c1-424b-9868-57a2d4851a1d" relativeResultsDirectory="335ec027-a03e-491a-9ed0-7beed2eb0234">
    </UnitTestResult>
    <UnitTestResult executionId="efa8b6ba-16d1-4e4b-a136-37434a55d328" testId="0f69d0f3-245d-6aa0-c5ad-4048e034180e" testName="GetAllPRiceMaster_test" computerName="SERVER" testType="13cdc9d9-ddb5-4fa4-a97d-d965ccfc6d4b" outcome="NotExecuted" testListId="8c84fa94-04c1-424b-9868-57a2d4851a1d" relativeResultsDirectory="efa8b6ba-16d1-4e4b-a136-37434a55d328">
    </UnitTestResult>
    <UnitTestResult executionId="4fce78e7-c320-425a-bfe0-6e7c8d0b25ad" testId="db97c3c7-17ff-da0a-0c75-0a7caa911b03" testName="GetAllMasterPriceTest" computerName="SERVER" testType="13cdc9d9-ddb5-4fa4-a97d-d965ccfc6d4b" outcome="NotExecuted" testListId="8c84fa94-04c1-424b-9868-57a2d4851a1d" relativeResultsDirectory="4fce78e7-c320-425a-bfe0-6e7c8d0b25ad">
    </UnitTestResult>
    <UnitTestResult executionId="d9ba9780-b2bf-4f26-9080-0c5f95aa3dd9" testId="414e750c-9a6c-1c69-45f5-ee2245290510" testName="CreateNewMRTest" computerName="SERVER" testType="13cdc9d9-ddb5-4fa4-a97d-d965ccfc6d4b" outcome="NotExecuted" testListId="8c84fa94-04c1-424b-9868-57a2d4851a1d" relativeResultsDirectory="d9ba9780-b2bf-4f26-9080-0c5f95aa3dd9">
    </UnitTestResult>
    <UnitTestResult executionId="4672cc53-472c-4e8e-9a04-d75af1d30e87" testId="fea950c0-39dd-23f6-121c-338e7b4f95e5" testName="CreateMRIssueTest" computerName="SERVER" testType="13cdc9d9-ddb5-4fa4-a97d-d965ccfc6d4b" outcome="NotExecuted" testListId="8c84fa94-04c1-424b-9868-57a2d4851a1d" relativeResultsDirectory="4672cc53-472c-4e8e-9a04-d75af1d30e87">
    </UnitTestResult>
    <UnitTestResult executionId="e9695bfc-63f5-4b88-b8fc-fee58a83328e" testId="c6b376e0-417f-7f41-ec14-5920a23b9ea9" testName="CreateMRReturnTest" computerName="SERVER" testType="13cdc9d9-ddb5-4fa4-a97d-d965ccfc6d4b" outcome="NotExecuted" testListId="8c84fa94-04c1-424b-9868-57a2d4851a1d" relativeResultsDirectory="e9695bfc-63f5-4b88-b8fc-fee58a83328e">
    </UnitTestResult>
    <UnitTestResult executionId="8d787c03-ffaa-4dc2-8493-3625bcd55288" testId="c2d35fc8-9e6e-9781-19df-627e43c3824b" testName="CloseMRTest" computerName="SERVER" testType="13cdc9d9-ddb5-4fa4-a97d-d965ccfc6d4b" outcome="NotExecuted" testListId="8c84fa94-04c1-424b-9868-57a2d4851a1d" relativeResultsDirectory="8d787c03-ffaa-4dc2-8493-3625bcd55288">
    </UnitTestResult>
    <UnitTestResult executionId="eeafa3fd-04fb-4e0d-980a-064d5bde38c7" testId="8082b35f-5cf4-4665-d6b3-daac84164ce7" testName="CreateNewPricingTest" computerName="SERVER" testType="13cdc9d9-ddb5-4fa4-a97d-d965ccfc6d4b" outcome="NotExecuted" testListId="8c84fa94-04c1-424b-9868-57a2d4851a1d" relativeResultsDirectory="eeafa3fd-04fb-4e0d-980a-064d5bde38c7">
    </UnitTestResult>
    <UnitTestResult executionId="bbb8f243-0029-41f8-a85d-c532257c534c" testId="a4390120-f936-dbc8-a62f-28926c425890" testName="GetMRHeadersTest" computerName="SERVER" testType="13cdc9d9-ddb5-4fa4-a97d-d965ccfc6d4b" outcome="NotExecuted" testListId="8c84fa94-04c1-424b-9868-57a2d4851a1d" relativeResultsDirectory="bbb8f243-0029-41f8-a85d-c532257c534c">
    </UnitTestResult>
    <UnitTestResult executionId="282ce506-2f1a-4402-9140-a8dcc2730413" testId="74becb99-b2e8-1365-5613-00f1dbb3126d" testName="GetMRByIDTest" computerName="SERVER" testType="13cdc9d9-ddb5-4fa4-a97d-d965ccfc6d4b" outcome="NotExecuted" testListId="8c84fa94-04c1-424b-9868-57a2d4851a1d" relativeResultsDirectory="282ce506-2f1a-4402-9140-a8dcc2730413">
    </UnitTestResult>
    <UnitTestResult executionId="c136b8a3-adfa-4068-b86c-d3937fe964e8" testId="29e354b4-9397-2d87-db7d-12691485a613" testName="GetMReceivingforMRIssueTest" computerName="SERVER" testType="13cdc9d9-ddb5-4fa4-a97d-d965ccfc6d4b" outcome="NotExecuted" testListId="8c84fa94-04c1-424b-9868-57a2d4851a1d" relativeResultsDirectory="c136b8a3-adfa-4068-b86c-d3937fe964e8">
    </UnitTestResult>
    <UnitTestResult executionId="f72318c3-3436-461e-85a0-bb0295a4b39a" testId="aeaacb2a-0169-1b30-fd4b-a208dd732c05" testName="GetMReceivingforMRReturnTest" computerName="SERVER" testType="13cdc9d9-ddb5-4fa4-a97d-d965ccfc6d4b" outcome="NotExecuted" testListId="8c84fa94-04c1-424b-9868-57a2d4851a1d" relativeResultsDirectory="f72318c3-3436-461e-85a0-bb0295a4b39a">
    </UnitTestResult>
    <TestResult executionId="c1795922-5aaf-41e1-a267-21e33cb4a418" testId="35d94504-203f-4a16-a67b-7687ffbf9d7c" testName="WebTest1" computerName="SERVER" testType="4e7599fa-5ecb-43e9-a887-cd63cf72d207" outcome="NotExecuted" testListId="8c84fa94-04c1-424b-9868-57a2d4851a1d" relativeResultsDirectory="c1795922-5aaf-41e1-a267-21e33cb4a418">
    </TestResult>
  </Results>
</TestRun>