﻿<?xml version="1.0" encoding="UTF-8"?>
<TestRun id="f3fbc2af-a27a-42e7-a94e-e40faf88f130" name="newINNOSOLS@SERVER 2012-03-03 18:26:05" runUser="SERVER\newINNOSOLS" xmlns="http://microsoft.com/schemas/VisualStudio/TeamTest/2010">
  <TestSettings name="Local" id="41678201-4eb4-4d6b-86b7-2e2fa0278df7">
    <Description>These are default test settings for a local test run.</Description>
    <Deployment enabled="false" runDeploymentRoot="newINNOSOLS_SERVER 2012-03-03 18_26_05">
      <DeploymentItem filename="E:\LiveProjects\SIMS.MM.DAL\SIMS.MM.DAL\bin\Debug\SIMS.MM.DAL.dll" />
      <DeploymentItem filename="E:\LiveProjects\SIMS.MM.DAL\SIMS.MM.BLL\bin\Debug\SIMS.MM.BLL.dll" />
      <DeploymentItem filename="E:\LiveProjects\SIMS.MM.DAL\SIMS.MM.BLL\bin\Debug\SIMS.MM.MODEL.dll" />
    </Deployment>
    <Execution>
      <TestTypeSpecific />
      <AgentRule name="Execution Agents">
        <DataCollectors>
          <DataCollector uri="datacollector://Microsoft/TestImpact/1.0" assemblyQualifiedName="Microsoft.VisualStudio.TraceCollector.TestImpactDataCollector, Microsoft.VisualStudio.TraceCollector, Version=10.0.0.0, Culture=neutral, PublicKeyToken=b03f5f7f11d50a3a">
          </DataCollector>
        </DataCollectors>
      </AgentRule>
    </Execution>
  </TestSettings>
  <Times creation="2012-03-03T18:26:05.6696501+05:30" queuing="2012-03-03T18:26:05.9156642+05:30" start="2012-03-03T18:26:13.2410832+05:30" finish="2012-03-03T18:26:27.3898925+05:30" />
  <ResultSummary outcome="Failed">
    <Counters total="1" executed="1" error="0" failed="1" timeout="0" aborted="0" inconclusive="0" passedButRunAborted="0" notRunnable="0" notExecuted="0" disconnected="0" warning="0" passed="0" completed="0" inProgress="0" pending="0" />
  </ResultSummary>
  <TestDefinitions>
    <UnitTest name="Get_POs_From_Database" storage="e:\liveprojects\sims.mm.dal\sims.mm.testing\bin\debug\sims.mm.testing.dll" id="ce8c4b1b-6ff5-e559-bd2c-e75a54d599ae">
      <Execution id="c8c3f3c9-82f8-4b20-8455-734c43129c47" />
      <TestMethod codeBase="E:/LiveProjects/SIMS.MM.DAL/SIMS.MM.Testing/bin/Debug/SIMS.MM.Testing.DLL" adapterTypeName="Microsoft.VisualStudio.TestTools.TestTypes.Unit.UnitTestAdapter, Microsoft.VisualStudio.QualityTools.Tips.UnitTest.Adapter, Version=10.0.0.0, Culture=neutral, PublicKeyToken=b03f5f7f11d50a3a" className="SIMS.MM.Testing.PurchasingTest, SIMS.MM.Testing, Version=1.0.0.0, Culture=neutral, PublicKeyToken=null" name="Get_POs_From_Database" />
    </UnitTest>
  </TestDefinitions>
  <TestLists>
    <TestList name="Results Not in a List" id="8c84fa94-04c1-424b-9868-57a2d4851a1d" />
    <TestList name="All Loaded Results" id="19431567-8539-422a-85d7-44ee4e166bda" />
  </TestLists>
  <TestEntries>
    <TestEntry testId="ce8c4b1b-6ff5-e559-bd2c-e75a54d599ae" executionId="c8c3f3c9-82f8-4b20-8455-734c43129c47" testListId="8c84fa94-04c1-424b-9868-57a2d4851a1d" />
  </TestEntries>
  <Results>
    <UnitTestResult executionId="c8c3f3c9-82f8-4b20-8455-734c43129c47" testId="ce8c4b1b-6ff5-e559-bd2c-e75a54d599ae" testName="Get_POs_From_Database" computerName="SERVER" duration="00:00:07.5054298" startTime="2012-03-03T18:26:13.3820913+05:30" endTime="2012-03-03T18:26:21.3645478+05:30" testType="13cdc9d9-ddb5-4fa4-a97d-d965ccfc6d4b" outcome="Failed" testListId="8c84fa94-04c1-424b-9868-57a2d4851a1d" relativeResultsDirectory="c8c3f3c9-82f8-4b20-8455-734c43129c47">
      <Output>
        <ErrorInfo>
          <Message>Assert.IsTrue failed. </Message>
          <StackTrace>   at SIMS.MM.Testing.PurchasingTest.Get_POs_From_Database() in E:\LiveProjects\SIMS.MM.DAL\SIMS.MM.Testing\UnitTest1.cs:line 374
</StackTrace>
        </ErrorInfo>
      </Output>
    </UnitTestResult>
  </Results>
</TestRun>