^D:\OFFICE-WORK\INNOSOLS\WORK\SILVERLIGHT\PARNAMI\PARNAMI\CONTRUCTION\CONTRUCTION\ASSETS\RESOURCES\APPLICATIONSTRINGS.RESX
^D:\OFFICE-WORK\INNOSOLS\WORK\SILVERLIGHT\PARNAMI\PARNAMI\CONTRUCTION\CONTRUCTION\ASSETS\RESOURCES\SECURITYQUESTIONS.RESX
^D:\OFFICE-WORK\INNOSOLS\WORK\SILVERLIGHT\PARNAMI\PARNAMI\CONTRUCTION\CONTRUCTION\WEB\RESOURCES\REGISTRATIONDATARESOURCES.RESX
^D:\OFFICE-WORK\INNOSOLS\WORK\SILVERLIGHT\PARNAMI\PARNAMI\CONTRUCTION\CONTRUCTION\WEB\RESOURCES\VALIDATIONERRORRESOURCES.RESX
