﻿<?xml version="1.0" encoding="UTF-8"?>
<TestRun id="1ab996a8-2dee-475a-be8b-8043873bd8ff" name="Madhur@MADHUR-PC 2013-04-11 18:24:04" runUser="Madhur-PC\Madhur" xmlns="http://microsoft.com/schemas/VisualStudio/TeamTest/2010">
  <TestSettings name="Local" id="845e9a67-80ff-4968-9f93-a51b19826188">
    <Description>These are default test settings for a local test run.</Description>
    <Deployment enabled="false" runDeploymentRoot="Madhur_MADHUR-PC 2013-04-11 18_24_04">
      <DeploymentItem filename="D:\OFFICE-WORK\INNOSOLS\WORK\SILVERLIGHT\PARNAMI\PARNAMI-2\SIMS.Core\bin\Debug\SIMS.Core.dll" />
      <DeploymentItem filename="D:\OFFICE-WORK\INNOSOLS\WORK\SILVERLIGHT\PARNAMI\PARNAMI-2\SIMS.MM.DAL\bin\Debug\SIMS.MM.DAL.dll" />
      <DeploymentItem filename="D:\OFFICE-WORK\INNOSOLS\WORK\SILVERLIGHT\PARNAMI\PARNAMI-2\SIMS.MM.BLL\bin\Debug\SIMS.MM.BLL.dll" />
      <DeploymentItem filename="D:\OFFICE-WORK\INNOSOLS\WORK\SILVERLIGHT\PARNAMI\PARNAMI-2\SIMS.MM.MODEL\bin\Debug\SIMS.MM.MODEL.dll" />
    </Deployment>
    <Execution>
      <TestTypeSpecific />
      <AgentRule name="Execution Agents">
      </AgentRule>
    </Execution>
  </TestSettings>
  <Times creation="2013-04-11T18:24:04.6061053+05:30" queuing="2013-04-11T18:24:05.2571425+05:30" start="2013-04-11T18:24:05.3221462+05:30" finish="2013-04-11T18:24:05.7071683+05:30" />
  <ResultSummary outcome="Error">
    <Counters total="1" executed="1" error="1" failed="0" timeout="0" aborted="0" inconclusive="0" passedButRunAborted="0" notRunnable="0" notExecuted="0" disconnected="0" warning="0" passed="0" completed="0" inProgress="0" pending="0" />
  </ResultSummary>
  <TestDefinitions>
    <UnitTest name="GetItemHeadersTest" storage="d:\office-work\innosols\work\silverlight\parnami\parnami-2\sims.parnami.testing\bin\debug\sims.parnami.testing.dll" id="ef1e1eec-19d1-f6fd-8fe9-f7522c05c409">
      <Execution id="4a8bc95a-3ccb-47e0-a971-288c8ff61aca" />
      <TestMethod codeBase="D:/OFFICE-WORK/INNOSOLS/WORK/SILVERLIGHT/PARNAMI/PARNAMI-2/SIMS.PARNAMI.TESTING/bin/Debug/SIMS.PARNAMI.TESTING.DLL" adapterTypeName="Microsoft.VisualStudio.TestTools.TestTypes.Unit.UnitTestAdapter, Microsoft.VisualStudio.QualityTools.Tips.UnitTest.Adapter, Version=10.0.0.0, Culture=neutral, PublicKeyToken=b03f5f7f11d50a3a" className="SIMS.PARNAMI.TESTING.MasterDataProvierTest, SIMS.PARNAMI.TESTING, Version=1.0.0.0, Culture=neutral, PublicKeyToken=null" name="GetItemHeadersTest" />
    </UnitTest>
  </TestDefinitions>
  <TestLists>
    <TestList name="Results Not in a List" id="8c84fa94-04c1-424b-9868-57a2d4851a1d" />
    <TestList name="All Loaded Results" id="19431567-8539-422a-85d7-44ee4e166bda" />
  </TestLists>
  <TestEntries>
    <TestEntry testId="ef1e1eec-19d1-f6fd-8fe9-f7522c05c409" executionId="4a8bc95a-3ccb-47e0-a971-288c8ff61aca" testListId="8c84fa94-04c1-424b-9868-57a2d4851a1d" />
  </TestEntries>
  <Results>
    <UnitTestResult executionId="4a8bc95a-3ccb-47e0-a971-288c8ff61aca" testId="ef1e1eec-19d1-f6fd-8fe9-f7522c05c409" testName="GetItemHeadersTest" computerName="MADHUR-PC" startTime="2013-04-11T18:24:05.3491478+05:30" endTime="2013-04-11T18:24:05.6961676+05:30" testType="13cdc9d9-ddb5-4fa4-a97d-d965ccfc6d4b" testListId="8c84fa94-04c1-424b-9868-57a2d4851a1d" relativeResultsDirectory="4a8bc95a-3ccb-47e0-a971-288c8ff61aca">
      <Output>
        <ErrorInfo>
          <Message>Unit Test Adapter threw exception: 
The type initializer for 'Microsoft.VisualStudio.TestTools.Diagnostics.EqtTrace' threw an exception.
Configuration system failed to initialize
Unrecognized configuration section add. (D:\OFFICE-WORK\INNOSOLS\WORK\SILVERLIGHT\PARNAMI\PARNAMI-2\SIMS.PARNAMI.TESTING\bin\Debug\SIMS.PARNAMI.TESTING.DLL.config line 3).</Message>
        </ErrorInfo>
      </Output>
    </UnitTestResult>
  </Results>
</TestRun>