﻿<?xml version="1.0" encoding="UTF-8"?>
<TestRun id="52ccf4da-35a9-4c00-88e7-d67e365dde81" name="newINNOSOLS@SERVER 2012-02-29 17:22:28" runUser="SERVER\newINNOSOLS" xmlns="http://microsoft.com/schemas/VisualStudio/TeamTest/2010">
  <TestSettings name="Local" id="845e9a67-80ff-4968-9f93-a51b19826188">
    <Description>These are default test settings for a local test run.</Description>
    <Deployment enabled="false" runDeploymentRoot="newINNOSOLS_SERVER 2012-02-29 17_22_28">
      <DeploymentItem filename="E:\LiveProjects\DKBuildcon2.1\Contruction\SIMS.TM.BLL\bin\Debug\SIMS.TM.BLL.dll" />
      <DeploymentItem filename="E:\LiveProjects\DKBuildcon2.1\Contruction\SIMS.TM.Model\bin\Debug\SIMS.TM.Model.dll" />
      <DeploymentItem filename="E:\LiveProjects\DKBuildcon2.1\Contruction\SIMS.TM.DAL\bin\Debug\SIMS.TM.DAL.dll" />
    </Deployment>
    <Execution>
      <TestTypeSpecific />
      <AgentRule name="Execution Agents">
      </AgentRule>
    </Execution>
  </TestSettings>
  <Times creation="2012-02-29T17:22:28.2689865+05:30" queuing="2012-02-29T17:22:31.6014698+05:30" start="2012-02-29T17:22:31.7886702+05:30" finish="2012-02-29T17:22:34.0350741+05:30" />
  <ResultSummary outcome="Completed">
    <Counters total="1" executed="1" passed="1" error="0" failed="0" timeout="0" aborted="0" inconclusive="0" passedButRunAborted="0" notRunnable="0" notExecuted="0" disconnected="0" warning="0" completed="0" inProgress="0" pending="0" />
  </ResultSummary>
  <TestDefinitions>
    <UnitTest name="CreateNewTenderTest" storage="e:\liveprojects\dkbuildcon2.1\contruction\tm.bll.unittesting\bin\debug\tm.bll.unittesting.dll" id="813f0446-c9a8-3abf-58fb-b6a3a3f13de9">
      <Execution id="f14d2c6b-adf6-4943-adce-808e2eeaaf5b" />
      <TestMethod codeBase="E:/LiveProjects/DKBuildcon2.1/Contruction/TM.BLL.UnitTesting/bin/Debug/TM.BLL.UnitTesting.DLL" adapterTypeName="Microsoft.VisualStudio.TestTools.TestTypes.Unit.UnitTestAdapter, Microsoft.VisualStudio.QualityTools.Tips.UnitTest.Adapter, Version=10.0.0.0, Culture=neutral, PublicKeyToken=b03f5f7f11d50a3a" className="TM.BLL.UnitTesting.TenderManagerTest, TM.BLL.UnitTesting, Version=1.0.0.0, Culture=neutral, PublicKeyToken=null" name="CreateNewTenderTest" />
    </UnitTest>
  </TestDefinitions>
  <TestLists>
    <TestList name="Results Not in a List" id="8c84fa94-04c1-424b-9868-57a2d4851a1d" />
    <TestList name="All Loaded Results" id="19431567-8539-422a-85d7-44ee4e166bda" />
  </TestLists>
  <TestEntries>
    <TestEntry testId="813f0446-c9a8-3abf-58fb-b6a3a3f13de9" executionId="f14d2c6b-adf6-4943-adce-808e2eeaaf5b" testListId="8c84fa94-04c1-424b-9868-57a2d4851a1d" />
  </TestEntries>
  <Results>
    <UnitTestResult executionId="f14d2c6b-adf6-4943-adce-808e2eeaaf5b" testId="813f0446-c9a8-3abf-58fb-b6a3a3f13de9" testName="CreateNewTenderTest" computerName="SERVER" duration="00:00:01.8005916" startTime="2012-02-29T17:22:31.8042702+05:30" endTime="2012-02-29T17:22:33.8946739+05:30" testType="13cdc9d9-ddb5-4fa4-a97d-d965ccfc6d4b" outcome="Passed" testListId="8c84fa94-04c1-424b-9868-57a2d4851a1d" relativeResultsDirectory="f14d2c6b-adf6-4943-adce-808e2eeaaf5b">
    </UnitTestResult>
  </Results>
</TestRun>