﻿<?xml version="1.0" encoding="UTF-8"?>
<TestRun id="8adfa9bb-a5ba-4fe6-a452-b9016a970330" name="Madhur@MADHUR-PC 2012-04-07 20:01:37" runUser="Madhur-PC\Madhur" xmlns="http://microsoft.com/schemas/VisualStudio/TeamTest/2010">
  <TestSettings name="Local" id="845e9a67-80ff-4968-9f93-a51b19826188">
    <Description>These are default test settings for a local test run.</Description>
    <Deployment userDeploymentRoot="D:\OFFICE-WORK\INNOSOLS\WORK\SILVERLIGHT\DK\DKBuildcon2.1\Contruction\TestResults" useDefaultDeploymentRoot="false" enabled="false" runDeploymentRoot="Madhur_MADHUR-PC 2012-04-07 20_01_37">
      <DeploymentItem filename="D:\OFFICE-WORK\INNOSOLS\WORK\SILVERLIGHT\DK\DKBuildcon2.1\SIMS.MM.DAL\SIMS.MM.BLL\bin\Debug\SIMS.MM.BLL.dll" />
      <DeploymentItem filename="D:\OFFICE-WORK\INNOSOLS\WORK\SILVERLIGHT\DK\DKBuildcon2.1\Contruction\SIMS.MM.MODEL\bin\Debug\SIMS.MM.MODEL.dll" />
      <DeploymentItem filename="D:\OFFICE-WORK\INNOSOLS\WORK\SILVERLIGHT\DK\DKBuildcon2.1\SIMS.MM.DAL\SIMS.MM.DAL\bin\Debug\SIMS.MM.DAL.dll" />
    </Deployment>
    <Execution>
      <TestTypeSpecific />
      <AgentRule name="Execution Agents">
      </AgentRule>
    </Execution>
  </TestSettings>
  <Times creation="2012-04-07T20:01:37.7172984+05:30" queuing="2012-04-07T20:01:42.0935487+05:30" start="2012-04-07T20:01:42.3795650+05:30" finish="2012-04-07T20:02:02.6257230+05:30" />
  <ResultSummary outcome="Error">
    <Counters total="1" executed="1" error="0" failed="0" timeout="0" aborted="1" inconclusive="0" passedButRunAborted="0" notRunnable="0" notExecuted="0" disconnected="0" warning="0" passed="0" completed="0" inProgress="0" pending="0" />
    <RunInfos>
      <RunInfo computerName="MADHUR-PC" outcome="Error" timestamp="2012-04-07T20:02:02.6227229+05:30">
        <Text>Test host process exited unexpectedly.</Text>
      </RunInfo>
    </RunInfos>
  </ResultSummary>
  <TestDefinitions>
    <UnitTest name="GetBillbyId_test" storage="d:\office-work\innosols\work\silverlight\dk\dkbuildcon2.1\sims.mm.dal\sims.mm.testing\bin\debug\sims.mm.testing.dll" id="0af8b801-29ed-8498-d7b9-272e0c62ccdb">
      <Execution id="7cc11a8b-2fe0-4280-ba25-3c9316b0038a" />
      <TestMethod codeBase="D:/OFFICE-WORK/INNOSOLS/WORK/SILVERLIGHT/DK/DKBuildcon2.1/SIMS.MM.DAL/SIMS.MM.Testing/bin/Debug/SIMS.MM.Testing.DLL" adapterTypeName="Microsoft.VisualStudio.TestTools.TestTypes.Unit.UnitTestAdapter, Microsoft.VisualStudio.QualityTools.Tips.UnitTest.Adapter, Version=10.0.0.0, Culture=neutral, PublicKeyToken=b03f5f7f11d50a3a" className="SIMS.MM.Testing.PurchasingTest, SIMS.MM.Testing, Version=1.0.0.0, Culture=neutral, PublicKeyToken=null" name="GetBillbyId_test" />
    </UnitTest>
  </TestDefinitions>
  <TestLists>
    <TestList name="Results Not in a List" id="8c84fa94-04c1-424b-9868-57a2d4851a1d" />
    <TestList name="All Loaded Results" id="19431567-8539-422a-85d7-44ee4e166bda" />
  </TestLists>
  <TestEntries>
    <TestEntry testId="0af8b801-29ed-8498-d7b9-272e0c62ccdb" executionId="7cc11a8b-2fe0-4280-ba25-3c9316b0038a" testListId="8c84fa94-04c1-424b-9868-57a2d4851a1d" />
  </TestEntries>
  <Results>
    <UnitTestResult executionId="7cc11a8b-2fe0-4280-ba25-3c9316b0038a" testId="0af8b801-29ed-8498-d7b9-272e0c62ccdb" testName="GetBillbyId_test" computerName="MADHUR-PC" duration="00:00:20.0041441" startTime="2012-04-07T20:01:42.6215789+05:30" endTime="2012-04-07T20:02:02.6257230+05:30" testType="13cdc9d9-ddb5-4fa4-a97d-d965ccfc6d4b" outcome="Aborted" testListId="8c84fa94-04c1-424b-9868-57a2d4851a1d" relativeResultsDirectory="7cc11a8b-2fe0-4280-ba25-3c9316b0038a">
    </UnitTestResult>
  </Results>
</TestRun>