﻿<?xml version="1.0" encoding="UTF-8"?>
<TestRun id="17524030-9f83-4a72-bdcb-b0c5b2a435f6" name="Madhur@MADHUR-PC 2012-04-02 11:39:07" runUser="Madhur-PC\Madhur" xmlns="http://microsoft.com/schemas/VisualStudio/TeamTest/2010">
  <TestSettings name="Local" id="845e9a67-80ff-4968-9f93-a51b19826188">
    <Description>These are default test settings for a local test run.</Description>
    <Deployment enabled="false" runDeploymentRoot="Madhur_MADHUR-PC 2012-04-02 11_39_07">
      <DeploymentItem filename="D:\OFFICE-WORK\INNOSOLS\WORK\SILVERLIGHT\DK\DKBuildcon2.1\SIMS.MM.DAL\SIMS.MM.BLL\bin\Debug\SIMS.MM.BLL.dll" />
      <DeploymentItem filename="D:\OFFICE-WORK\INNOSOLS\WORK\SILVERLIGHT\DK\DKBuildcon2.1\Contruction\SIMS.MM.MODEL\bin\Debug\SIMS.MM.MODEL.dll" />
      <DeploymentItem filename="D:\OFFICE-WORK\INNOSOLS\WORK\SILVERLIGHT\DK\DKBuildcon2.1\SIMS.MM.DAL\SIMS.MM.DAL\bin\Debug\SIMS.MM.DAL.dll" />
    </Deployment>
    <Execution>
      <TestTypeSpecific />
      <AgentRule name="Execution Agents">
      </AgentRule>
    </Execution>
  </TestSettings>
  <Times creation="2012-04-02T11:39:07.2144739+05:30" queuing="2012-04-02T11:39:07.2874781+05:30" start="2012-04-02T11:39:07.3174798+05:30" finish="2012-04-02T11:39:07.3624824+05:30" />
  <ResultSummary outcome="NotRunnable">
    <Counters total="1" error="0" failed="0" timeout="0" aborted="0" inconclusive="0" passedButRunAborted="0" notRunnable="1" notExecuted="0" disconnected="0" warning="0" passed="0" completed="0" inProgress="0" pending="0" />
  </ResultSummary>
  <TestDefinitions>
    <UnitTest name="GetStockSummary_test" storage="d:\office-work\innosols\work\silverlight\dk\dkbuildcon2.1\sims.mm.dal\sims.mm.testing\bin\debug\sims.mm.testing.dll" id="95febd8c-78e1-042d-d707-99167c790b59">
      <Execution id="4525dfff-a012-471f-8ca9-8b33aa3fccf3" />
      <TestMethod codeBase="D:/OFFICE-WORK/INNOSOLS/WORK/SILVERLIGHT/DK/DKBuildcon2.1/SIMS.MM.DAL/SIMS.MM.Testing/bin/Debug/SIMS.MM.Testing.DLL" adapterTypeName="Microsoft.VisualStudio.TestTools.TestTypes.Unit.UnitTestAdapter, Microsoft.VisualStudio.QualityTools.Tips.UnitTest.Adapter, Version=10.0.0.0, Culture=neutral, PublicKeyToken=b03f5f7f11d50a3a" className="SIMS.MM.Testing.PurchasingTest, SIMS.MM.Testing, Version=1.0.0.0, Culture=neutral, PublicKeyToken=null" name="GetStockSummary_test" />
    </UnitTest>
  </TestDefinitions>
  <TestLists>
    <TestList name="Results Not in a List" id="8c84fa94-04c1-424b-9868-57a2d4851a1d" />
    <TestList name="All Loaded Results" id="19431567-8539-422a-85d7-44ee4e166bda" />
  </TestLists>
  <TestEntries>
    <TestEntry testId="95febd8c-78e1-042d-d707-99167c790b59" executionId="4525dfff-a012-471f-8ca9-8b33aa3fccf3" testListId="8c84fa94-04c1-424b-9868-57a2d4851a1d" />
  </TestEntries>
  <Results>
    <UnitTestResult executionId="4525dfff-a012-471f-8ca9-8b33aa3fccf3" testId="95febd8c-78e1-042d-d707-99167c790b59" testName="GetStockSummary_test" computerName="MADHUR-PC" testType="13cdc9d9-ddb5-4fa4-a97d-d965ccfc6d4b" outcome="NotRunnable" testListId="8c84fa94-04c1-424b-9868-57a2d4851a1d" relativeResultsDirectory="4525dfff-a012-471f-8ca9-8b33aa3fccf3">
      <Output>
        <ErrorInfo>
          <Message>UTA007: Method GetStockSummary_test defined in class SIMS.MM.Testing.PurchasingTest does not have correct signature. Test method marked with the [TestMethod] attribute must be non-static, public, does not return a value and should not take any parameter. for example: public void Test.Class1.Test().</Message>
        </ErrorInfo>
      </Output>
    </UnitTestResult>
  </Results>
</TestRun>