^D:\OFFICE-WORK\INNOSOLS\WORK\SILVERLIGHT\DK\DKBUILDCON2.1\CONTRUCTION\CONTRUCTION\ASSETS\RESOURCES\APPLICATIONSTRINGS.RESX
^D:\OFFICE-WORK\INNOSOLS\WORK\SILVERLIGHT\DK\DKBUILDCON2.1\CONTRUCTION\CONTRUCTION\ASSETS\RESOURCES\SECURITYQUESTIONS.RESX
^D:\OFFICE-WORK\INNOSOLS\WORK\SILVERLIGHT\DK\DKBUILDCON2.1\CONTRUCTION\CONTRUCTION\WEB\RESOURCES\REGISTRATIONDATARESOURCES.RESX
^D:\OFFICE-WORK\INNOSOLS\WORK\SILVERLIGHT\DK\DKBUILDCON2.1\CONTRUCTION\CONTRUCTION\WEB\RESOURCES\VALIDATIONERRORRESOURCES.RESX
