﻿<?xml version="1.0" encoding="UTF-8"?>
<TestRun id="396f184a-2be0-4c32-981c-b3673e2c6763" name="newINNOSOLS@SERVER 2012-02-29 12:31:38" runUser="SERVER\newINNOSOLS" xmlns="http://microsoft.com/schemas/VisualStudio/TeamTest/2010">
  <TestSettings name="Local" id="845e9a67-80ff-4968-9f93-a51b19826188">
    <Description>These are default test settings for a local test run.</Description>
    <Deployment userDeploymentRoot="E:\LiveProjects\DKBuildcon2.1\Contruction\TestResults" useDefaultDeploymentRoot="false" enabled="false" runDeploymentRoot="newINNOSOLS_SERVER 2012-02-29 12_31_38">
      <DeploymentItem filename="E:\LiveProjects\DKBuildcon2.1\Contruction\SIMS.TM.BLL\bin\Debug\SIMS.TM.BLL.dll" />
      <DeploymentItem filename="E:\LiveProjects\DKBuildcon2.1\Contruction\SIMS.TM.Model\bin\Debug\SIMS.TM.Model.dll" />
      <DeploymentItem filename="E:\LiveProjects\DKBuildcon2.1\Contruction\SIMS.TM.DAL\bin\Debug\SIMS.TM.DAL.dll" />
    </Deployment>
    <Execution>
      <TestTypeSpecific />
      <AgentRule name="Execution Agents">
      </AgentRule>
    </Execution>
  </TestSettings>
  <Times creation="2012-02-29T12:31:38.9221449+05:30" queuing="2012-02-29T12:31:48.4833242+05:30" start="2012-02-29T12:31:48.6611275+05:30" finish="2012-02-29T12:32:30.4928336+05:30" />
  <ResultSummary outcome="Error">
    <Counters total="1" executed="1" error="0" failed="0" timeout="0" aborted="1" inconclusive="0" passedButRunAborted="0" notRunnable="0" notExecuted="0" disconnected="0" warning="0" passed="0" completed="0" inProgress="0" pending="0" />
    <RunInfos>
      <RunInfo computerName="SERVER" outcome="Error" timestamp="2012-02-29T12:32:30.4928336+05:30">
        <Text>Test host process exited unexpectedly.</Text>
      </RunInfo>
    </RunInfos>
  </ResultSummary>
  <TestDefinitions>
    <UnitTest name="GetTenderByIDTest" storage="e:\liveprojects\dkbuildcon2.1\contruction\tm.bll.unittesting\bin\debug\tm.bll.unittesting.dll" id="d58d2b45-be34-357c-b93e-abe2e6d62351">
      <Execution id="988d7f78-4b02-433d-add9-1581bb175fe6" />
      <TestMethod codeBase="E:/LiveProjects/DKBuildcon2.1/Contruction/TM.BLL.UnitTesting/bin/Debug/TM.BLL.UnitTesting.DLL" adapterTypeName="Microsoft.VisualStudio.TestTools.TestTypes.Unit.UnitTestAdapter, Microsoft.VisualStudio.QualityTools.Tips.UnitTest.Adapter, Version=10.0.0.0, Culture=neutral, PublicKeyToken=b03f5f7f11d50a3a" className="TM.BLL.UnitTesting.TenderDataProviderTest, TM.BLL.UnitTesting, Version=1.0.0.0, Culture=neutral, PublicKeyToken=null" name="GetTenderByIDTest" />
    </UnitTest>
  </TestDefinitions>
  <TestLists>
    <TestList name="Results Not in a List" id="8c84fa94-04c1-424b-9868-57a2d4851a1d" />
    <TestList name="All Loaded Results" id="19431567-8539-422a-85d7-44ee4e166bda" />
  </TestLists>
  <TestEntries>
    <TestEntry testId="d58d2b45-be34-357c-b93e-abe2e6d62351" executionId="988d7f78-4b02-433d-add9-1581bb175fe6" testListId="8c84fa94-04c1-424b-9868-57a2d4851a1d" />
  </TestEntries>
  <Results>
    <UnitTestResult executionId="988d7f78-4b02-433d-add9-1581bb175fe6" testId="d58d2b45-be34-357c-b93e-abe2e6d62351" testName="GetTenderByIDTest" computerName="SERVER" duration="00:00:41.6757058" startTime="2012-02-29T12:31:48.8171278+05:30" endTime="2012-02-29T12:32:30.4928336+05:30" testType="13cdc9d9-ddb5-4fa4-a97d-d965ccfc6d4b" outcome="Aborted" testListId="8c84fa94-04c1-424b-9868-57a2d4851a1d" relativeResultsDirectory="988d7f78-4b02-433d-add9-1581bb175fe6">
    </UnitTestResult>
  </Results>
</TestRun>