﻿<?xml version="1.0" encoding="UTF-8"?>
<TestRun id="55a2b297-7174-414a-88d1-f7d77dd72556" name="Madhur@MADHUR-PC 2012-04-07 19:53:23" runUser="Madhur-PC\Madhur" xmlns="http://microsoft.com/schemas/VisualStudio/TeamTest/2010">
  <TestSettings name="Local" id="845e9a67-80ff-4968-9f93-a51b19826188">
    <Description>These are default test settings for a local test run.</Description>
    <Deployment enabled="false" runDeploymentRoot="Madhur_MADHUR-PC 2012-04-07 19_53_23">
      <DeploymentItem filename="D:\OFFICE-WORK\INNOSOLS\WORK\SILVERLIGHT\DK\DKBuildcon2.1\SIMS.MM.DAL\SIMS.MM.BLL\bin\Debug\SIMS.MM.BLL.dll" />
      <DeploymentItem filename="D:\OFFICE-WORK\INNOSOLS\WORK\SILVERLIGHT\DK\DKBuildcon2.1\Contruction\SIMS.MM.MODEL\bin\Debug\SIMS.MM.MODEL.dll" />
      <DeploymentItem filename="D:\OFFICE-WORK\INNOSOLS\WORK\SILVERLIGHT\DK\DKBuildcon2.1\SIMS.MM.DAL\SIMS.MM.DAL\bin\Debug\SIMS.MM.DAL.dll" />
    </Deployment>
    <Execution>
      <TestTypeSpecific />
      <AgentRule name="Execution Agents">
      </AgentRule>
    </Execution>
  </TestSettings>
  <Times creation="2012-04-07T19:53:23.5170317+05:30" queuing="2012-04-07T19:53:24.2770752+05:30" start="2012-04-07T19:53:24.3480792+05:30" finish="2012-04-07T19:53:29.5263754+05:30" />
  <ResultSummary outcome="Failed">
    <Counters total="1" executed="1" error="0" failed="1" timeout="0" aborted="0" inconclusive="0" passedButRunAborted="0" notRunnable="0" notExecuted="0" disconnected="0" warning="0" passed="0" completed="0" inProgress="0" pending="0" />
  </ResultSummary>
  <TestDefinitions>
    <UnitTest name="GetBillbyId_test" storage="d:\office-work\innosols\work\silverlight\dk\dkbuildcon2.1\sims.mm.dal\sims.mm.testing\bin\debug\sims.mm.testing.dll" id="0af8b801-29ed-8498-d7b9-272e0c62ccdb">
      <Execution id="013d9ee0-634d-4502-a9b4-d6394f334dae" />
      <TestMethod codeBase="D:/OFFICE-WORK/INNOSOLS/WORK/SILVERLIGHT/DK/DKBuildcon2.1/SIMS.MM.DAL/SIMS.MM.Testing/bin/Debug/SIMS.MM.Testing.DLL" adapterTypeName="Microsoft.VisualStudio.TestTools.TestTypes.Unit.UnitTestAdapter, Microsoft.VisualStudio.QualityTools.Tips.UnitTest.Adapter, Version=10.0.0.0, Culture=neutral, PublicKeyToken=b03f5f7f11d50a3a" className="SIMS.MM.Testing.PurchasingTest, SIMS.MM.Testing, Version=1.0.0.0, Culture=neutral, PublicKeyToken=null" name="GetBillbyId_test" />
    </UnitTest>
  </TestDefinitions>
  <TestLists>
    <TestList name="Results Not in a List" id="8c84fa94-04c1-424b-9868-57a2d4851a1d" />
    <TestList name="All Loaded Results" id="19431567-8539-422a-85d7-44ee4e166bda" />
  </TestLists>
  <TestEntries>
    <TestEntry testId="0af8b801-29ed-8498-d7b9-272e0c62ccdb" executionId="013d9ee0-634d-4502-a9b4-d6394f334dae" testListId="8c84fa94-04c1-424b-9868-57a2d4851a1d" />
  </TestEntries>
  <Results>
    <UnitTestResult executionId="013d9ee0-634d-4502-a9b4-d6394f334dae" testId="0af8b801-29ed-8498-d7b9-272e0c62ccdb" testName="GetBillbyId_test" computerName="MADHUR-PC" duration="00:00:02.9274840" startTime="2012-04-07T19:53:24.4890873+05:30" endTime="2012-04-07T19:53:27.9532855+05:30" testType="13cdc9d9-ddb5-4fa4-a97d-d965ccfc6d4b" outcome="Failed" testListId="8c84fa94-04c1-424b-9868-57a2d4851a1d" relativeResultsDirectory="013d9ee0-634d-4502-a9b4-d6394f334dae">
      <Output>
        <ErrorInfo>
          <Message>Test method SIMS.MM.Testing.PurchasingTest.GetBillbyId_test threw exception: 
System.Data.EntityCommandExecutionException: An error occurred while executing the command definition. See the inner exception for details. ---&gt; System.Data.SqlClient.SqlException: Invalid object name 'dbo.Billing'.</Message>
          <StackTrace>    at System.Data.SqlClient.SqlConnection.OnError(SqlException exception, Boolean breakConnection)
   at System.Data.SqlClient.SqlInternalConnection.OnError(SqlException exception, Boolean breakConnection)
   at System.Data.SqlClient.TdsParser.ThrowExceptionAndWarning()
   at System.Data.SqlClient.TdsParser.Run(RunBehavior runBehavior, SqlCommand cmdHandler, SqlDataReader dataStream, BulkCopySimpleResultSet bulkCopyHandler, TdsParserStateObject stateObj)
   at System.Data.SqlClient.SqlDataReader.ConsumeMetaData()
   at System.Data.SqlClient.SqlDataReader.get_MetaData()
   at System.Data.SqlClient.SqlCommand.FinishExecuteReader(SqlDataReader ds, RunBehavior runBehavior, String resetOptionsString)
   at System.Data.SqlClient.SqlCommand.RunExecuteReaderTds(CommandBehavior cmdBehavior, RunBehavior runBehavior, Boolean returnStream, Boolean async)
   at System.Data.SqlClient.SqlCommand.RunExecuteReader(CommandBehavior cmdBehavior, RunBehavior runBehavior, Boolean returnStream, String method, DbAsyncResult result)
   at System.Data.SqlClient.SqlCommand.RunExecuteReader(CommandBehavior cmdBehavior, RunBehavior runBehavior, Boolean returnStream, String method)
   at System.Data.SqlClient.SqlCommand.ExecuteReader(CommandBehavior behavior, String method)
   at System.Data.SqlClient.SqlCommand.ExecuteDbDataReader(CommandBehavior behavior)
   at System.Data.Common.DbCommand.ExecuteReader(CommandBehavior behavior)
   at System.Data.EntityClient.EntityCommandDefinition.ExecuteStoreCommands(EntityCommand entityCommand, CommandBehavior behavior)
 --- End of inner exception stack trace ---
    at System.Data.EntityClient.EntityCommandDefinition.ExecuteStoreCommands(EntityCommand entityCommand, CommandBehavior behavior)
   at System.Data.Objects.Internal.ObjectQueryExecutionPlan.Execute[TResultType](ObjectContext context, ObjectParameterCollection parameterValues)
   at System.Data.Objects.ObjectQuery`1.GetResults(Nullable`1 forMergeOption)
   at System.Data.Objects.ObjectQuery`1.System.Collections.Generic.IEnumerable&lt;T&gt;.GetEnumerator()
   at System.Linq.Enumerable.Single[TSource](IEnumerable`1 source)
   at System.Data.Objects.ELinq.ObjectQueryProvider.&lt;GetElementFunction&gt;b__3[TResult](IEnumerable`1 sequence)
   at System.Data.Objects.ELinq.ObjectQueryProvider.ExecuteSingle[TResult](IEnumerable`1 query, Expression queryRoot)
   at System.Data.Objects.ELinq.ObjectQueryProvider.System.Linq.IQueryProvider.Execute[S](Expression expression)
   at System.Linq.Queryable.Single[TSource](IQueryable`1 source, Expression`1 predicate)
   at SIMS.MM.BLL.BillingDataProvider.GetBillbyId(Int32 billid) in D:\OFFICE-WORK\INNOSOLS\WORK\SILVERLIGHT\DK\DKBuildcon2.1\SIMS.MM.DAL\SIMS.MM.BLL\BillingDataProvider.cs:line 128
   at SIMS.MM.Testing.PurchasingTest.GetBillbyId_test() in D:\OFFICE-WORK\INNOSOLS\WORK\SILVERLIGHT\DK\DKBuildcon2.1\SIMS.MM.DAL\SIMS.MM.Testing\UnitTest1.cs:line 752
</StackTrace>
        </ErrorInfo>
      </Output>
    </UnitTestResult>
  </Results>
</TestRun>